5001  -0.500274
5011  -0.590036
5021  -0.459343
5031  -0.954893
5041  -0.966543
5051  -0.385367
5061  -0.224697
5071  -0.348466
5081  -0.709726
5091  -0.912675
5101  -0.758063
5111  -0.355765
5121  -0.563169
5131  -0.584128
5141  -0.741875
5151  -0.690059
5161  -0.684637
5171  -0.833255
5181  -1.09128
5191  -0.237279
5201  -0.482047
5211  -0.566893
5221  -0.869547
5231  -0.318326
5241  -0.302594
5251  -0.53153
5261  -0.365934
5271  -0.579519
5281  -0.547835
5291  -0.186824
5301  -0.520157
5311  -0.272758
5321  -0.230518
5331  -0.648158
5341  -0.647958
5351  -0.405786
5361  -0.751905
5371  -1.14677
5381  -0.815593
5391  -0.566328
5401  0.639161
5411  -0.415906
5421  -0.692301
5431  -0.525132
5441  -0.671459
5451  -0.726774
5461  -0.42607
5471  -0.617697
5481  -0.249719
5491  -0.366454
5501  -0.183831
5511  -0.288019
5521  -0.80318
5531  -0.513339
5541  -0.657818
5551  -0.447323
5561  -0.867438
5571  -0.708664
5581  -0.790497
5591  -0.471543
5601  -0.394487
5611  -0.493737
5621  -0.367803
5631  -0.515445
5641  -0.798934
5651  -0.630267
5661  -0.243391
5671  -0.328836
5681  -0.476828
5691  -0.577902
5701  -0.999459
5711  -0.139408
5721  -0.345291
5731  -0.405436
5741  -0.401869
5751  -0.220098
5761  -0.374084
5771  -0.470253
5781  -0.365141
5791  -0.584828
5801  -1.04095
5811  -0.707771
5821  -0.423614
5831  -0.427488
5841  -0.318272
5851  -0.41753
5861  -0.814954
5871  -0.431855
5881  -0.445903
5891  -0.563047
5901  -0.491359
5911  -0.654136
5921  -0.861854
5931  -0.62001
5941  -0.327819
5951  0.00582513
5961  -0.545316
5971  -0.370786
5981  -0.484963
5991  -0.870488
6001  -0.514239
6011  -1.01879
6021  -0.48025
6031  -0.487839
6041  -0.879563
6051  -1.00697
6061  -0.74354
6071  -0.510024
6081  -0.682958
6091  -0.539351
6101  -0.566452
6111  -0.500269
6121  -0.336876
6131  -0.178298
6141  -0.763208
6151  -1.03223
6161  -0.527316
6171  -0.929105
6181  -0.806488
6191  -0.534242
6201  -0.534494
6211  -0.841802
6221  -0.85512
6231  -0.546327
6241  -0.418198
6251  -0.604289
6261  -0.681854
6271  -0.885398
6281  -0.377901
6291  -0.531164
6301  -0.554031
6311  -0.356952
6321  -0.351005
6331  -0.460617
6341  -0.440441
6351  -0.0941714
6361  -0.375501
6371  -0.227596
6381  -0.754222
6391  -0.489415
6401  -0.468828
6411  -0.266704
6421  -0.0382737
6431  -0.564855
6441  -0.664382
6451  -0.604427
6461  -0.801807
6471  -0.537232
6481  -0.386216
6491  -0.568282
6501  -0.465916
6511  -0.388306
6521  -0.446892
6531  -0.705269
6541  -0.357147
6551  -0.488606
6561  -0.58892
6571  -0.491026
6581  -0.483768
6591  -0.358799
6601  -0.340845
6611  -0.49579
6621  -0.698899
6631  -0.569652
6641  -0.497212
6651  -0.40001
6661  -0.539713
6671  -0.484353
6681  -0.831964
6691  -0.454092
6701  -0.73973
6711  -0.595766
6721  -0.690615
6731  -0.569894
6741  -0.630592
6751  -0.399923
6761  -0.648983
6771  -0.285306
6781  -0.345136
6791  -0.606448
6801  -0.659106
6811  -0.912402
6821  -0.675641
6831  -0.452674
6841  -0.549219
6851  -0.699517
6861  -0.747916
6871  -0.802689
6881  -0.563963
6891  -0.450326
6901  -0.874018
6911  -0.058744
6921  -0.363302
6931  -0.831835
6941  -0.352154
6951  -0.466913
6961  -0.642005
6971  -0.930967
6981  -0.625425
6991  -0.363483
7001  -0.583737
7011  -0.207973
7021  -0.213145
7031  -0.342133
7041  -0.383935
7051  -0.504715
7061  -0.603033
7071  -0.737869
7081  -0.402357
7091  -0.733999
7101  -0.450468
7111  -0.619965
7121  -0.755926
7131  -0.448404
7141  -0.113548
7151  -0.572707
7161  -0.360744
7171  -0.410419
7181  -0.403946
7191  -0.755176
7201  -0.627014
7211  -0.306619
7221  -0.486218
7231  -0.21996
7241  -0.598334
7251  -0.54337
7261  -0.606654
7271  -0.389959
7281  -0.532162
7291  -0.540251
7301  -0.611968
7311  -1.04787
7321  -0.421904
7331  -0.315311
7341  -0.498988
7351  -0.71404
7361  -0.473804
7371  -0.682983
7381  -0.668233
7391  -0.590708
7401  -0.523882
7411  -0.480559
7421  -0.991527
7431  -0.545255
7441  -0.314656
7451  -0.347561
7461  -0.554689
7471  -0.676043
7481  -0.662397
7491  -0.515099
7501  -0.502144
7511  -0.597375
7521  -0.592148
7531  -0.758619
7541  -0.553078
7551  -0.706417
7561  -0.676844
7571  -0.591859
7581  -0.339233
7591  -0.380975
7601  -0.826755
7611  -0.453949
7621  -0.473084
7631  -0.728407
7641  -0.714188
7651  -0.487352
7661  -0.451171
7671  -0.574143
7681  -0.588888
7691  -0.442878
7701  -0.507753
7711  -0.581927
7721  -0.59158
7731  -0.434744
7741  -0.917664
7751  -0.477811
7761  -0.800303
7771  -0.414959
7781  -0.409325
7791  -0.636143
7801  -0.634342
7811  -0.823845
7821  -0.555866
7831  -0.413859
7841  -0.435747
7851  -0.679565
7861  -0.406351
7871  -0.519418
7881  -0.568593
7891  -0.427682
7901  -0.31733
7911  -0.557745
7921  -0.670463
7931  -0.67761
7941  -0.411599
7951  -0.686726
7961  -0.519043
7971  -0.478849
7981  -0.334285
7991  -0.627524
8001  -0.545993
8011  -0.577634
8021  -0.269771
8031  -0.600874
8041  -0.443802
8051  -0.510555
8061  -0.817597
8071  -0.38596
8081  -0.636365
8091  -0.423051
8101  -0.377252
8111  -0.571161
8121  -0.477458
8131  -0.320236
8141  -0.478129
8151  -0.47643
8161  -0.205894
8171  -1.03406
8181  -0.318784
8191  -0.832493
8201  -0.335485
8211  -0.363709
8221  -0.860923
8231  -0.285802
8241  -0.119916
8251  -0.32746
8261  -0.291112
8271  -0.456922
8281  -0.574545
8291  -0.701985
8301  -0.378763
8311  -0.589253
8321  -0.521311
8331  -0.234813
8341  -0.699394
8351  -0.735256
8361  -0.406682
8371  -0.644103
8381  -0.916737
8391  -0.545951
8401  -0.489887
8411  -0.682256
8421  -0.590793
8431  -0.280431
8441  -0.768169
8451  -0.621497
8461  -0.122758
8471  -0.505097
8481  -0.135917
8491  -0.565255
8501  -0.39588
8511  -0.159776
8521  -0.267135
8531  -0.421229
8541  -0.666284
8551  -0.333879
8561  -0.675326
8571  -0.338049
8581  -0.582121
8591  -0.562249
8601  -0.649471
8611  -0.646865
8621  -0.407581
8631  -0.720526
8641  -0.61461
8651  -0.668362
8661  -0.77681
8671  -0.714361
8681  -0.768639
8691  -0.714487
8701  -0.442857
8711  -0.518582
8721  -0.595412
8731  -0.717216
8741  -0.402952
8751  -0.471207
8761  -1.12099
8771  -0.692915
8781  -0.609764
8791  -0.696662
8801  0.0702965
8811  -0.755929
8821  -0.570937
8831  -0.901673
8841  -0.63377
8851  -0.773774
8861  -0.257684
8871  -0.416866
8881  -0.410101
8891  -1.00155
8901  -0.477453
8911  -0.414557
8921  -0.503052
8931  -0.234941
8941  -0.388592
8951  -0.719318
8961  -0.630465
8971  -1.0839
8981  -0.718122
8991  -0.694893
9001  -0.532553
9011  -0.551429
9021  -0.456779
9031  -0.0718969
9041  -0.405237
9051  -0.860392
9061  -0.148756
9071  -0.535649
9081  0.228203
9091  -0.610813
9101  -0.791183
9111  -0.840019
9121  -0.721235
9131  -0.642601
9141  -0.714053
9151  -0.513868
9161  -0.570258
9171  -0.247194
9181  -0.137743
9191  -0.398641
9201  -0.747729
9211  -0.2629
9221  -0.453272
9231  -0.973239
9241  -1.11929
9251  -0.504509
9261  -0.400074
9271  -0.663346
9281  -0.346922
9291  -0.588536
9301  -0.511977
9311  -0.653714
9321  -0.623702
9331  -0.573992
9341  -0.570037
9351  -0.841965
9361  -0.748071
9371  -0.409699
9381  -0.401561
9391  -0.232633
9401  -0.343939
9411  -0.265879
9421  -0.396538
9431  -0.268507
9441  -0.439585
9451  -0.439441
9461  -0.618611
9471  -1.01669
9481  -0.597129
9491  -0.639511
9501  -0.695019
9511  -0.610659
9521  -0.730715
9531  -0.24306
9541  -0.447897
9551  -0.707003
9561  -0.788727
9571  -0.235564
9581  -0.799455
9591  -0.788012
9601  -0.659418
9611  -0.322067
9621  -0.11633
9631  -0.396026
9641  -0.869599
9651  -0.562579
9661  -0.431455
9671  -0.206174
9681  -0.489354
9691  -0.375687
9701  -0.713824
9711  -0.370753
9721  -0.689563
9731  -0.367059
9741  -0.429973
9751  -1.153
9761  -0.368122
9771  -0.600859
9781  -0.413518
9791  -0.643773
9801  -0.715433
9811  -0.657791
9821  -0.511793
9831  -0.124692
9841  -0.485455
9851  -0.550766
9861  -0.495036
9871  -0.559032
9881  -0.671106
9891  -0.338524
9901  -0.578737
9911  -0.883804
9921  -0.709346
9931  -0.586656
9941  -0.577894
9951  -0.798774
9961  -0.2638
9971  -0.172391
9981  -0.321064
9991  -0.900073
10001  -0.818769
10011  -0.597926
10021  -0.918392
10031  -0.646963
10041  -0.424662
10051  -0.5418
10061  0.371394
10071  -0.308535
10081  -0.583405
10091  -0.39217
10101  -0.23911
10111  -0.5273
10121  -0.829187
10131  -0.206879
10141  -0.619185
10151  -0.606002
10161  -0.661876
10171  -0.535621
10181  -0.396859
10191  -0.590396
10201  -0.589297
10211  -0.359441
10221  -0.368011
10231  -0.599199
10241  -0.551706
10251  -0.482055
10261  -0.298146
10271  -0.758967
10281  -0.296104
10291  -0.673043
10301  -0.464272
10311  -0.579607
10321  -0.38182
10331  -0.704577
10341  -0.696208
10351  -0.593207
10361  -0.527869
10371  -0.497544
10381  -0.618743
10391  -0.632483
10401  -0.677883
10411  -0.605574
10421  -0.326454
10431  -0.759528
10441  -0.50671
10451  -0.255168
10461  -0.256128
10471  -0.572109
10481  -0.517411
10491  -0.613513
10501  -0.752039
10511  -0.406677
10521  -0.655986
10531  -0.601171
10541  -0.421509
10551  -0.643701
10561  -0.705022
10571  -0.754781
10581  -0.713416
10591  -0.471798
10601  -0.927786
10611  -0.843588
10621  -0.593827
10631  -0.00560123
10641  -0.910212
10651  -0.627272
10661  -0.328499
10671  -0.395747
10681  -0.741045
10691  -0.723103
10701  -0.307361
10711  -0.932967
10721  -0.534997
10731  -0.840151
10741  -0.575765
10751  0.0606568
10761  0.0275063
10771  -0.327967
10781  -0.664427
10791  -0.96669
10801  -0.455807
10811  -0.595631
10821  -0.34011
10831  -0.436154
10841  -0.502965
10851  -0.560827
10861  -0.377918
10871  -0.672037
10881  -0.543525
10891  -0.758133
10901  -0.637191
10911  -0.348683
10921  -0.70616
10931  -0.683802
10941  -0.459659
10951  -0.751252
10961  -0.772035
10971  -0.195826
10981  -0.513057
10991  -0.172499
11001  -0.527825
11011  -0.617394
11021  -0.584342
11031  -0.44044
11041  -0.569919
11051  -0.614795
11061  -0.467604
11071  -0.578639
11081  -0.338752
11091  -0.685803
11101  -0.462167
11111  -0.510981
11121  -0.384019
11131  -0.654163
11141  -0.466899
11151  -0.408456
11161  -0.402835
11171  -0.926165
11181  -0.542528
11191  -0.242191
11201  -0.892594
11211  -0.584805
11221  -0.39169
11231  -0.258448
11241  -0.228333
11251  -0.687471
11261  -0.755791
11271  -0.481115
11281  -0.389691
11291  -0.662272
11301  -0.757325
11311  -0.441893
11321  -0.519409
11331  -0.322548
11341  -0.73459
11351  -0.531253
11361  -0.430617
11371  -1.02674
11381  -0.348747
11391  -0.806994
11401  -0.520555
11411  -0.553525
11421  -0.774091
11431  -0.507595
11441  -0.657546
11451  -0.415433
11461  -0.589046
11471  -0.310097
11481  -0.24291
11491  -0.724857
11501  -0.536984
11511  0.199335
11521  -0.197707
11531  -0.739203
11541  -0.789137
11551  -0.552636
11561  -1.16396
11571  -0.561646
11581  -0.678331
11591  -0.741755
11601  -0.435524
11611  -0.729744
11621  -0.590231
11631  -0.390755
11641  0.0341672
11651  -0.856674
11661  -0.653718
11671  -0.531728
11681  -0.265335
11691  -0.426264
11701  -0.428094
11711  -0.142373
11721  -0.638623
11731  -0.490795
11741  -0.537675
11751  -0.415117
11761  -0.434068
11771  -0.577886
11781  -0.303655
11791  -0.364872
11801  -0.504331
11811  -0.619378
11821  -0.334881
11831  -0.52331
11841  -0.469883
11851  -0.878868
11861  -0.927489
11871  -0.690181
11881  -0.487417
11891  -0.586229
11901  -0.453247
11911  -0.572451
11921  -0.672864
11931  -0.729356
11941  -0.713777
11951  -0.519466
11961  -0.482026
11971  -0.495483
11981  -0.591153
11991  -0.860739
12001  -0.423965
12011  -0.416748
12021  -0.625657
12031  -0.699248
12041  -0.317424
12051  -0.688342
12061  -0.269529
12071  -0.741827
12081  -0.633285
12091  -0.750398
12101  -0.739632
12111  -0.60568
12121  -0.393144
12131  -0.103648
12141  -0.691134
12151  -0.636622
12161  -0.363033
12171  -0.193456
12181  -0.457765
12191  -0.38833
12201  -0.642323
12211  -0.472687
12221  -0.647349
12231  -0.850237
12241  0.030425
12251  -0.527955
12261  -0.510559
12271  -0.714371
12281  -0.333911
12291  -0.400066
12301  -1.03963
12311  -0.843945
12321  -0.696755
12331  -0.703307
12341  -0.674285
12351  -0.741409
12361  -0.639561
12371  -0.460912
12381  -0.541981
12391  -0.288627
12401  -0.538685
12411  -0.436493
12421  -0.914856
12431  -0.588646
12441  -0.253233
12451  -0.439111
12461  -0.943564
12471  -0.633936
12481  -0.603826
12491  -1.24296
12501  -0.792918
12511  -0.441478
12521  -0.630691
12531  -0.738974
12541  -0.433529
12551  -0.405098
12561  -0.419317
12571  -0.570744
12581  -0.27906
12591  -0.139429
12601  -0.695025
12611  -0.572982
12621  -0.545234
12631  -0.392563
12641  -0.963231
12651  -0.575391
12661  -0.56751
12671  -0.734896
12681  -0.390783
12691  -0.476704
12701  -0.45603
12711  -0.551667
12721  -0.504946
12731  -0.459679
12741  -0.717194
12751  -0.639753
12761  -0.411523
12771  -0.729558
12781  -0.53649
12791  -0.515357
12801  -0.567228
12811  -0.428609
12821  -0.6268
12831  -0.452511
12841  -0.680811
12851  -0.772004
12861  -0.457362
12871  -0.387736
12881  -0.875468
12891  -0.786714
12901  -0.66421
12911  -0.454496
12921  -0.377738
12931  -0.398961
12941  -0.547645
12951  -0.619157
12961  -0.0474034
12971  -0.0938612
12981  -0.45907
12991  -0.853922
13001  0.119924
13011  -0.5264
13021  -0.678985
13031  -0.442404
13041  -0.933282
13051  -0.389651
13061  -0.546323
13071  -0.685036
13081  -0.543245
13091  -0.982672
13101  -0.757307
13111  -0.583225
13121  -0.718958
13131  -0.715582
13141  -0.585665
13151  -1.11992
13161  -0.44037
13171  -0.906016
13181  -0.625721
13191  -0.499129
13201  -0.654896
13211  -0.429459
13221  -0.416139
13231  -0.299084
13241  -0.588022
13251  -0.792882
13261  -0.591711
13271  -0.261766
13281  -0.840657
13291  -0.849529
13301  -0.758874
13311  -0.60438
13321  -0.615227
13331  -1.01251
13341  -0.395289
13351  -0.576614
13361  -0.414825
13371  -0.905312
13381  -0.696842
13391  -0.783502
13401  -0.629517
13411  -0.841781
13421  -0.473567
13431  -0.400259
13441  -0.900634
13451  -0.860467
13461  -0.640844
13471  -0.490244
13481  -0.639582
13491  -0.587662
13501  -0.362284
13511  -0.296558
13521  -0.586655
13531  -0.79965
13541  -0.616782
13551  -0.490861
13561  -0.356368
13571  -0.632344
13581  -0.557542
13591  -0.459629
13601  -0.217563
13611  -0.349274
13621  -0.430918
13631  -0.334735
13641  -0.303893
13651  -0.352571
13661  -0.343139
13671  -0.920368
13681  -0.30513
13691  -0.601738
13701  -0.695885
13711  -0.660345
13721  -0.36931
13731  -0.848129
13741  -0.347
13751  -0.599329
13761  -0.437209
13771  -0.281844
13781  -0.647621
13791  -0.633561
13801  -0.325325
13811  -0.47929
13821  -0.62443
13831  -0.499079
13841  -0.489103
13851  -0.0557913
13861  -0.213985
13871  -0.587141
13881  -0.291993
13891  -0.56622
13901  -0.812236
13911  -0.954309
13921  -0.813799
13931  -0.591463
13941  -0.668569
13951  -0.683644
13961  -0.362475
13971  -0.159792
13981  -0.387971
13991  -0.718163
14001  -0.282417
14011  -0.633692
14021  -0.263081
14031  -0.32613
14041  -0.414688
14051  -0.458432
14061  -0.836318
14071  -0.482531
14081  -0.368156
14091  -0.497757
14101  -0.648161
14111  -0.496406
14121  -0.500682
14131  -0.333993
14141  -0.983247
14151  -0.41931
14161  -0.555543
14171  -0.664093
14181  -0.941249
14191  -0.740644
14201  -0.861531
14211  -0.411589
14221  -0.506718
14231  -0.617611
14241  -0.517896
14251  -0.261862
14261  -0.64397
14271  -0.666293
14281  -0.681566
14291  -0.590092
14301  -0.472394
14311  -0.635115
14321  -0.508318
14331  -0.855372
14341  -0.354723
14351  -0.514987
14361  -0.544241
14371  -0.407223
14381  -0.728106
14391  -0.69934
14401  -0.0376233
14411  -0.235352
14421  -0.900991
14431  -0.751474
14441  -0.554426
14451  -0.409658
14461  -0.75529
14471  -0.64006
14481  -0.930706
14491  -0.624133
14501  -0.77742
14511  -0.344395
14521  -0.779386
14531  -0.50519
14541  -0.620516
14551  -0.384421
14561  -0.52855
14571  -0.609938
14581  -0.555774
14591  -0.446018
14601  -0.559146
14611  -0.76462
14621  -0.326033
14631  -0.669783
14641  -0.666177
14651  -0.614646
14661  -0.635871
14671  -0.343839
14681  -0.468136
14691  -0.748125
14701  -0.630527
14711  -0.492893
14721  -0.850524
14731  -0.594717
14741  -0.0879815
14751  -0.845377
14761  -0.646965
14771  -0.696187
14781  -0.652189
14791  -0.429048
14801  -1.17637
14811  -0.476908
14821  -0.784917
14831  -0.555828
14841  -0.455381
14851  -0.250171
14861  -0.672038
14871  -0.810418
14881  -0.653363
14891  -0.855805
14901  -0.509635
14911  -0.419507
14921  -0.417247
14931  -0.0345933
14941  -0.600069
14951  -0.362371
14961  -0.416085
14971  -0.198815
14981  -0.472279
14991  -0.230033
5001  0.252637
5011  -0.0370275
5021  -0.37498
5031  0.439922
5041  -0.0730897
5051  -0.180716
5061  -0.705505
5071  -0.246937
5081  0.198915
5091  0.407013
5101  0.153247
5111  -0.2588
5121  0.219652
5131  0.492042
5141  0.0691704
5151  0.536877
5161  0.384395
5171  0.526624
5181  0.406603
5191  -0.574406
5201  0.351298
5211  0.468252
5221  0.870224
5231  -0.513287
5241  -0.395801
5251  0.173205
5261  -0.1696
5271  -0.150411
5281  0.334737
5291  -0.165305
5301  -0.166485
5311  -0.0549834
5321  -0.431577
5331  -0.36383
5341  0.274971
5351  -0.495813
5361  0.0881164
5371  0.967496
5381  0.603516
5391  0.403826
5401  -0.966129
5411  -0.0550749
5421  0.580708
5431  -0.284612
5441  0.189558
5451  0.257994
5461  0.197118
5471  0.015835
5481  0.134046
5491  -0.110408
5501  -0.301606
5511  -0.341983
5521  0.476397
5531  0.20167
5541  -0.182352
5551  0.278166
5561  0.162928
5571  0.248887
5581  0.298994
5591  -0.489139
5601  -0.70109
5611  0.136143
5621  0.0470795
5631  -0.140699
5641  0.328056
5651  0.39783
5661  0.0565114
5671  -0.176848
5681  0.0644498
5691  -0.16523
5701  0.545676
5711  -0.32802
5721  0.0138707
5731  -0.105836
5741  0.0148778
5751  -0.352705
5761  0.0830786
5771  0.00485978
5781  -0.222095
5791  -0.38162
5801  0.353051
5811  0.432741
5821  -0.230193
5831  0.337878
5841  0.396101
5851  -0.0312271
5861  0.104835
5871  0.301208
5881  0.0691142
5891  0.0398722
5901  0.00475894
5911  0.65909
5921  0.631467
5931  -0.538148
5941  -0.544604
5951  -0.535322
5961  -0.32479
5971  -0.228374
5981  -0.154265
5991  0.321525
6001  0.383037
6011  0.76733
6021  -0.38784
6031  -0.177915
6041  0.572369
6051  0.575886
6061  0.452947
6071  0.00139783
6081  -0.318917
6091  -0.048274
6101  0.530513
6111  0.228971
6121  0.211594
6131  -0.720299
6141  0.483898
6151  0.398996
6161  -0.0129144
6171  0.540836
6181  0.179154
6191  0.111029
6201  -0.438602
6211  0.435176
6221  0.0529616
6231  0.266422
6241  -0.200705
6251  -0.0708678
6261  0.18463
6271  0.459652
6281  -0.255624
6291  -0.0634932
6301  0.146133
6311  -0.209647
6321  -0.0154225
6331  0.221171
6341  -0.166849
6351  -0.0194904
6361  0.05922
6371  -0.393945
6381  0.317189
6391  0.0622517
6401  0.209085
6411  -0.259891
6421  -0.946178
6431  -0.931344
6441  0.0335538
6451  0.10327
6461  0.318673
6471  0.151824
6481  -0.299856
6491  0.0913787
6501  -0.664624
6511  -0.18854
6521  -0.47246
6531  0.268658
6541  -0.156459
6551  0.17777
6561  0.362274
6571  0.0176729
6581  0.228678
6591  0.0412347
6601  0.0676688
6611  0.0741161
6621  0.13784
6631  -0.271811
6641  0.0186368
6651  -0.323083
6661  -0.112825
6671  -0.315933
6681  0.629823
6691  0.341647
6701  -0.0104833
6711  0.064942
6721  0.406285
6731  -0.00175387
6741  0.0675956
6751  0.0900742
6761  0.26383
6771  -0.127323
6781  -0.313543
6791  0.402766
6801  0.120134
6811  0.329339
6821  0.196006
6831  0.289024
6841  0.00720899
6851  0.0707261
6861  0.303898
6871  0.304322
6881  -0.0404493
6891  -0.142211
6901  -0.153456
6911  -0.842216
6921  -0.563752
6931  0.253445
6941  0.207066
6951  0.142365
6961  -0.321681
6971  0.116215
6981  0.221232
6991  0.312568
7001  0.850263
7011  -0.00198422
7021  -0.492174
7031  -0.599086
7041  -0.253104
7051  0.0237244
7061  0.328699
7071  -0.0653655
7081  -0.53502
7091  0.306044
7101  0.301999
7111  -0.0139898
7121  0.13614
7131  0.322694
7141  -1.06794
7151  -0.126363
7161  0.532085
7171  0.225439
7181  -0.469347
7191  0.492671
7201  0.213709
7211  -0.087458
7221  0.106125
7231  -0.559405
7241  0.321314
7251  0.0642673
7261  -0.0138206
7271  0.0866693
7281  0.589087
7291  0.363747
7301  0.353999
7311  0.70052
7321  -0.165822
7331  -0.0500368
7341  0.381439
7351  0.530567
7361  0.223788
7371  0.350473
7381  0.166011
7391  -0.414124
7401  0.275835
7411  -0.0503357
7421  0.475085
7431  -0.507942
7441  -0.649169
7451  -0.522758
7461  0.0650728
7471  0.242122
7481  -0.136459
7491  -0.416043
7501  0.221558
7511  -0.106402
7521  0.255347
7531  0.54566
7541  0.189649
7551  0.734247
7561  -0.0577869
7571  0.214943
7581  0.358996
7591  -0.10191
7601  -0.178553
7611  -0.247963
7621  -0.0974944
7631  0.62129
7641  -0.147896
7651  0.0953616
7661  -0.275816
7671  -0.164644
7681  0.401645
7691  0.421727
7701  0.113208
7711  -0.0311609
7721  0.150118
7731  0.49466
7741  0.398225
7751  -0.267723
7761  0.168241
7771  0.510936
7781  -0.246145
7791  -0.0653697
7801  0.312336
7811  0.693398
7821  0.041488
7831  0.336577
7841  0.032365
7851  0.447571
7861  -0.013325
7871  0.0131626
7881  0.457196
7891  0.197864
7901  -0.285225
7911  -0.517654
7921  -0.173398
7931  0.363721
7941  0.0766416
7951  0.095771
7961  0.344909
7971  0.479446
7981  -0.2634
7991  0.507694
8001  0.175378
8011  0.032902
8021  -0.396143
8031  0.320844
8041  -0.394741
8051  0.486199
8061  0.476779
8071  -0.148247
8081  -0.30373
8091  -0.224696
8101  0.316717
8111  -0.0704171
8121  -0.325846
8131  -0.14605
8141  -0.128873
8151  0.0213592
8161  -0.572128
8171  0.176646
8181  -0.240212
8191  0.186381
8201  -0.660151
8211  -0.155068
8221  0.0925796
8231  -0.403159
8241  -0.749627
8251  -0.436711
8261  -0.186037
8271  -0.200565
8281  0.067068
8291  -0.342266
8301  -0.198501
8311  0.0879419
8321  -0.478885
8331  -0.355454
8341  0.0975051
8351  -0.147328
8361  0.0262183
8371  0.0467213
8381  0.455514
8391  -0.254686
8401  0.383512
8411  0.114526
8421  0.233955
8431  -0.46441
8441  0.315911
8451  0.31936
8461  -0.303855
8471  0.625094
8481  -0.510175
8491  -0.0480428
8501  -0.475239
8511  -0.218883
8521  -0.0961875
8531  0.12827
8541  0.185903
8551  -0.187876
8561  0.356332
8571  0.100121
8581  0.189015
8591  0.265111
8601  0.00446346
8611  0.151563
8621  0.102139
8631  0.165518
8641  0.0286574
8651  0.155289
8661  -0.0152526
8671  0.0194695
8681  0.0822964
8691  0.0369197
8701  0.066398
8711  -0.020906
8721  -0.0353102
8731  0.011021
8741  -0.315339
8751  -0.110342
8761  0.853533
8771  0.232658
8781  0.044295
8791  -0.0101428
8801  -0.466685
8811  0.421005
8821  -0.045732
8831  0.54981
8841  0.209095
8851  0.74533
8861  -0.0698117
8871  -0.37423
8881  -0.152217
8891  0.0611944
8901  0.199694
8911  -0.435694
8921  -0.264349
8931  -0.421198
8941  -0.0272327
8951  0.157989
8961  0.0631171
8971  0.731748
8981  0.256391
8991  -0.0694283
9001  0.0472489
9011  -0.283679
9021  0.907999
9031  -0.164771
9041  -0.155307
9051  0.416479
9061  -0.364559
9071  -0.225337
9081  -0.566304
9091  0.214151
9101  0.158226
9111  0.381263
9121  -0.0949961
9131  -0.253505
9141  0.386195
9151  0.110873
9161  0.428007
9171  0.212166
9181  0.0287016
9191  -0.339572
9201  0.366146
9211  0.199459
9221  0.110711
9231  0.537836
9241  0.754372
9251  0.222831
9261  -0.0884064
9271  0.0772509
9281  -0.274347
9291  0.165864
9301  -0.0794913
9311  0.317676
9321  -0.295923
9331  0.201921
9341  0.215799
9351  0.593482
9361  0.568933
9371  0.0526295
9381  0.264823
9391  -0.255254
9401  -0.199633
9411  0.209295
9421  -0.284103
9431  -0.644913
9441  -0.212926
9451  0.0661698
9461  0.263767
9471  0.864193
9481  0.0813483
9491  -0.115131
9501  -0.196736
9511  0.413377
9521  0.469867
9531  0.214258
9541  -0.0349059
9551  -0.0216597
9561  0.217899
9571  -0.104396
9581  0.39401
9591  0.788731
9601  0.340779
9611  -0.41514
9621  -0.00953483
9631  0.495918
9641  0.309292
9651  -0.222729
9661  0.4177
9671  0.0547729
9681  -0.358767
9691  -0.376851
9701  -0.0318218
9711  -0.309575
9721  0.222252
9731  -0.23734
9741  0.0763539
9751  0.552554
9761  -0.343797
9771  -0.261735
9781  -0.0362763
9791  0.315747
9801  0.154691
9811  0.288445
9821  -0.0220967
9831  -0.784213
9841  -0.0471814
9851  -0.202931
9861  -0.110717
9871  -0.0983779
9881  -0.0785058
9891  -0.466158
9901  0.00235936
9911  0.764492
9921  0.768426
9931  -0.26381
9941  -0.0204051
9951  0.279016
9961  -0.278501
9971  -0.00780758
9981  -0.415253
9991  0.367936
10001  0.441915
10011  0.322819
10021  0.638102
10031  -0.364904
10041  -0.0557846
10051  -0.0578746
10061  -0.229036
10071  -0.236502
10081  -0.0159713
10091  -0.220632
10101  -0.153381
10111  -0.0747438
10121  -0.377031
10131  -0.771558
10141  0.23003
10151  0.125116
10161  -0.11135
10171  -0.0741926
10181  0.0202213
10191  -0.283942
10201  0.164876
10211  -0.405949
10221  -0.116173
10231  0.0687865
10241  0.203783
10251  0.17021
10261  0.157562
10271  0.513348
10281  -0.592906
10291  0.142484
10301  0.425599
10311  0.285537
10321  -0.426007
10331  0.72243
10341  -0.0286289
10351  -0.140651
10361  -0.183196
10371  0.000951801
10381  0.341173
10391  -0.113703
10401  0.197898
10411  -0.132139
10421  0.194557
10431  0.457602
10441  -0.0946021
10451  -0.391031
10461  0.117738
10471  0.417207
10481  0.193838
10491  0.448193
10501  0.571185
10511  0.131211
10521  0.484656
10531  0.704633
10541  0.24776
10551  0.375034
10561  0.235018
10571  0.615151
10581  0.453124
10591  -0.129523
10601  0.301441
10611  0.431885
10621  -0.186013
10631  -0.693574
10641  0.456581
10651  -0.0195789
10661  -0.203816
10671  0.335311
10681  0.74211
10691  -0.139151
10701  -0.0250728
10711  0.853902
10721  -0.102895
10731  0.0791654
10741  -0.00122964
10751  0.0447557
10761  -0.364625
10771  -0.301517
10781  -0.43918
10791  -0.0569428
10801  -0.217436
10811  -0.198455
10821  -0.375235
10831  -0.246849
10841  -0.102379
10851  0.125608
10861  -0.176764
10871  0.0783741
10881  0.253009
10891  0.327716
10901  0.0845987
10911  0.0038978
10921  0.678833
10931  0.466464
10941  0.0317832
10951  -0.311826
10961  0.179098
10971  -0.448573
10981  0.0731482
10991  -0.0767535
11001  0.196811
11011  0.104013
11021  0.131653
11031  0.00758198
11041  0.470007
11051  0.581487
11061  -0.554177
11071  -0.0995003
11081  -0.204656
11091  0.156467
11101  -0.108015
11111  -0.165009
11121  0.0706804
11131  0.0549343
11141  -0.299121
11151  -0.0386049
11161  0.170959
11171  0.330944
11181  0.114677
11191  -0.0838964
11201  0.987506
11211  0.0389182
11221  0.0425397
11231  -0.26324
11241  -0.376189
11251  0.0707407
11261  0.432873
11271  0.0150878
11281  0.0905709
11291  0.0717702
11301  0.29049
11311  0.0961256
11321  -0.0286065
11331  0.306167
11341  0.509926
11351  -0.020326
11361  0.0365589
11371  0.672327
11381  0.239038
11391  0.616844
11401  0.158752
11411  -0.169944
11421  -0.118375
11431  0.731161
11441  -0.264335
11451  -0.576447
11461  0.312807
11471  0.0180436
11481  -0.456205
11491  0.407853
11501  0.0268771
11511  -0.668852
11521  -0.178619
11531  0.167876
11541  0.419123
11551  -0.11953
11561  0.0386261
11571  -0.613257
11581  -0.0760895
11591  0.750425
11601  0.0720533
11611  0.221909
11621  -0.244418
11631  -0.251162
11641  -1.10064
11651  0.181754
11661  0.502114
11671  0.00960344
11681  -0.427372
11691  0.143695
11701  0.19892
11711  0.353032
11721  -0.0368999
11731  0.276383
11741  0.273703
11751  -0.0769323
11761  -0.636728
11771  -0.322977
11781  -0.0730623
11791  -0.0403192
11801  0.0236627
11811  -0.229876
11821  0.437283
11831  0.336235
11841  -0.133478
11851  0.578591
11861  0.532648
11871  0.0298629
11881  -0.38365
11891  0.0564203
11901  -0.345109
11911  -0.0447279
11921  0.300429
11931  0.168072
11941  0.137341
11951  0.253962
11961  -0.100904
11971  -0.280637
11981  0.332915
11991  0.319079
12001  -0.00120767
12011  -0.242078
12021  0.353578
12031  0.0693855
12041  -0.610654
12051  -0.258508
12061  -0.657767
12071  0.242067
12081  -0.130791
12091  0.592379
12101  0.455265
12111  -0.149057
12121  0.184157
12131  -0.121231
12141  -0.144675
12151  0.0604322
12161  0.154865
12171  0.0408793
12181  -0.0520517
12191  -0.357559
12201  -0.218826
12211  0.0706937
12221  -0.411269
12231  0.366618
12241  -0.351988
12251  -0.119898
12261  -0.19641
12271  0.0990039
12281  -0.202524
12291  0.108169
12301  0.158328
12311  0.0716539
12321  0.329824
12331  0.204305
12341  0.132341
12351  0.247031
12361  0.315171
12371  0.100166
12381  0.280239
12391  0.153545
12401  0.127326
12411  0.232802
12421  0.567872
12431  0.342985
12441  -0.293532
12451  0.00883598
12461  0.356335
12471  0.0355871
12481  0.0216226
12491  0.946733
12501  0.026309
12511  -0.253421
12521  0.0600734
12531  0.211918
12541  0.0148811
12551  0.205791
12561  0.119061
12571  -0.0163756
12581  -0.429298
12591  -0.830186
12601  0.046237
12611  0.225887
12621  -0.380403
12631  0.11214
12641  0.441163
12651  0.317429
12661  0.15429
12671  0.495681
12681  -0.165444
12691  0.435933
12701  -0.833885
12711  0.369664
12721  0.270709
12731  0.160607
12741  -0.011376
12751  0.125515
12761  -0.143367
12771  0.0867753
12781  0.801905
12791  0.0315262
12801  -0.261248
12811  -0.738533
12821  0.000474004
12831  -0.109907
12841  0.151579
12851  0.690326
12861  0.126023
12871  0.130163
12881  0.131925
12891  0.286358
12901  0.502875
12911  0.0131317
12921  -0.385071
12931  -0.486426
12941  -0.206224
12951  0.00901084
12961  0.0185108
12971  0.288267
12981  0.399307
12991  -0.257274
13001  -0.507745
13011  0.154923
13021  0.234935
13031  0.277531
13041  0.119903
13051  -0.21662
13061  -0.146725
13071  -0.143113
13081  -0.118281
13091  -0.027252
13101  0.130281
13111  -0.338741
13121  0.27487
13131  0.0783609
13141  0.0533476
13151  0.435733
13161  -0.147752
13171  0.876222
13181  0.164356
13191  -0.0388506
13201  -0.0476218
13211  -0.549545
13221  -0.348932
13231  -0.632329
13241  0.607506
13251  0.501117
13261  0.508003
13271  -0.0925806
13281  0.666313
13291  0.158201
13301  0.525963
13311  0.472982
13321  0.275974
13331  0.494068
13341  -0.283365
13351  0.540471
13361  -0.0250964
13371  0.658537
13381  0.289746
13391  -0.0403075
13401  -0.250685
13411  -0.00528897
13421  -0.691879
13431  -0.480086
13441  0.0621032
13451  0.248037
13461  -0.161325
13471  -0.117295
13481  -0.1073
13491  0.0761464
13501  -0.620542
13511  0.216984
13521  0.084851
13531  0.504205
13541  0.250215
13551  0.599981
13561  -0.196615
13571  -0.254774
13581  0.322205
13591  -0.221899
13601  -0.483444
13611  -0.311714
13621  0.0703601
13631  -0.18392
13641  -0.056364
13651  -0.415279
13661  0.177294
13671  0.763115
13681  -0.36466
13691  0.324334
13701  0.121098
13711  -0.140108
13721  -0.380505
13731  0.183643
13741  -0.24292
13751  0.403761
13761  0.566196
13771  0.265174
13781  -0.255109
13791  0.770804
13801  -0.811025
13811  0.413443
13821  0.187413
13831  0.122061
13841  0.604107
13851  -0.984571
13861  -0.39624
13871  -0.052337
13881  0.371751
13891  -0.240903
13901  0.485613
13911  0.494889
13921  0.317915
13931  -0.0386987
13941  -0.160672
13951  0.162391
13961  -0.0453652
13971  -0.528959
13981  -0.0790838
13991  0.283775
14001  0.382869
14011  0.355934
14021  -0.281231
14031  -0.129753
14041  -0.226161
14051  -0.0816706
14061  0.244289
14071  -0.128747
14081  -0.443545
14091  -0.210869
14101  0.208957
14111  -0.101562
14121  -0.182206
14131  -0.0733552
14141  0.748999
14151  0.136741
14161  -0.167148
14171  0.38661
14181  0.683603
14191  0.262146
14201  0.417365
14211  -0.19164
14221  0.603123
14231  -0.181585
14241  0.119659
14251  -0.0506722
14261  0.317707
14271  0.23435
14281  0.238012
14291  0.115996
14301  0.250592
14311  0.183676
14321  0.00224825
14331  0.226724
14341  -0.210514
14351  -0.468597
14361  0.0639326
14371  -0.0845107
14381  0.172326
14391  0.078838
14401  -0.162479
14411  0.121038
14421  0.230997
14431  0.0729647
14441  0.127147
14451  0.136597
14461  0.356451
14471  -0.136144
14481  0.316724
14491  0.292408
14501  0.564559
14511  0.0640185
14521  0.416622
14531  -0.234679
14541  0.12487
14551  0.110858
14561  -0.39029
14571  0.352046
14581  0.100777
14591  -0.097927
14601  0.354416
14611  0.0763706
14621  -0.207264
14631  0.471249
14641  0.353104
14651  -0.0325272
14661  0.232741
14671  -0.0777396
14681  -0.00221011
14691  0.42778
14701  0.310403
14711  -0.0470796
14721  0.0554129
14731  0.474381
14741  0.126001
14751  0.596296
14761  0.309288
14771  0.0988389
14781  -0.0509065
14791  -0.437875
14801  0.595154
14811  -0.613796
14821  0.227985
14831  0.423112
14841  -0.371553
14851  -0.0844548
14861  0.556159
14871  0.452518
14881  -0.0670565
14891  0.170639
14901  -0.317841
14911  0.176575
14921  -0.058325
14931  -0.265324
14941  0.102341
14951  -0.0511003
14961  -0.248104
14971  -0.561536
14981  0.614816
14991  -0.153749
5001  1.3017
5011  1.27954
5021  1.43326
5031  2.30146
5041  2.24049
5051  1.44159
5061  1.24825
5071  1.13017
5081  1.62837
5091  1.88967
5101  1.46223
5111  1.11167
5121  1.19431
5131  1.46861
5141  1.81213
5151  1.32925
5161  1.1848
5171  1.45339
5181  2.1152
5191  0.575901
5201  1.18499
5211  1.53276
5221  1.71439
5231  1.21292
5241  1.1846
5251  1.38701
5261  1.41449
5271  1.51925
5281  1.48485
5291  1.07009
5301  0.972399
5311  1.15549
5321  0.889939
5331  1.35844
5341  0.928728
5351  1.64669
5361  1.61344
5371  2.0794
5381  1.6183
5391  1.08142
5401  0.133546
5411  1.02798
5421  1.61945
5431  1.47585
5441  1.46937
5451  1.61676
5461  1.18714
5471  1.86005
5481  0.819885
5491  1.01581
5501  1.0126
5511  1.08414
5521  1.62522
5531  1.39263
5541  1.22247
5551  1.35907
5561  1.51429
5571  1.26754
5581  1.1852
5591  1.45983
5601  1.78274
5611  1.52668
5621  1.91284
5631  0.828791
5641  1.53905
5651  1.0195
5661  1.02127
5671  1.21225
5681  1.63196
5691  1.44336
5701  1.51136
5711  1.52798
5721  1.33966
5731  0.997755
5741  1.32695
5751  1.31897
5761  1.23035
5771  1.03978
5781  1.39068
5791  1.15379
5801  1.69241
5811  1.51915
5821  1.37908
5831  1.32293
5841  1.03521
5851  1.30443
5861  1.44344
5871  1.59642
5881  1.55232
5891  1.60008
5901  1.16283
5911  1.53115
5921  1.33115
5931  1.32597
5941  1.13782
5951  0.507619
5961  1.20387
5971  1.22591
5981  1.49381
5991  1.14566
6001  1.29368
6011  2.05353
6021  1.76607
6031  1.08355
6041  1.56397
6051  2.04874
6061  1.67399
6071  1.70139
6081  1.35606
6091  1.37812
6101  1.33314
6111  0.935676
6121  0.73491
6131  1.60475
6141  1.56984
6151  2.22694
6161  1.30205
6171  1.62837
6181  1.59493
6191  1.39603
6201  1.14165
6211  1.74316
6221  1.61365
6231  1.50942
6241  1.07962
6251  1.34502
6261  1.61576
6271  1.5914
6281  0.995282
6291  1.46345
6301  1.17209
6311  0.82873
6321  1.17012
6331  1.12981
6341  1.09036
6351  0.899207
6361  1.47545
6371  1.34358
6381  1.58373
6391  1.13585
6401  1.14862
6411  1.2181
6421  0.481032
6431  1.74401
6441  1.57707
6451  1.31778
6461  1.68999
6471  1.43433
6481  0.866865
6491  1.09981
6501  1.63915
6511  0.910226
6521  1.75169
6531  1.69357
6541  0.727256
6551  1.73076
6561  1.49662
6571  1.36902
6581  1.35994
6591  1.1565
6601  1.1419
6611  1.32079
6621  0.828786
6631  1.47979
6641  1.28976
6651  1.19063
6661  1.70979
6671  1.70337
6681  1.3246
6691  1.1936
6701  1.58656
6711  1.57089
6721  1.9762
6731  1.30349
6741  1.22722
6751  1.15237
6761  1.21185
6771  1.04012
6781  0.644894
6791  1.59575
6801  1.33013
6811  1.69465
6821  1.59478
6831  1.30249
6841  1.05761
6851  1.60458
6861  1.40795
6871  1.52495
6881  1.29194
6891  1.02225
6901  1.24497
6911  0.952554
6921  0.942272
6931  1.65842
6941  1.41784
6951  1.46903
6961  1.30713
6971  1.59025
6981  1.30218
6991  1.22702
7001  1.2801
7011  0.89446
7021  0.956583
7031  0.879469
7041  1.2786
7051  1.24195
7061  1.33162
7071  1.30938
7081  1.12601
7091  1.94044
7101  1.4336
7111  1.38762
7121  1.38869
7131  1.63079
7141  1.215
7151  1.72996
7161  1.63598
7171  1.39067
7181  0.959255
7191  1.83114
7201  1.6261
7211  1.44758
7221  0.959838
7231  1.26431
7241  1.40672
7251  1.20764
7261  1.37116
7271  1.32201
7281  1.18411
7291  1.34848
7301  1.31399
7311  1.96538
7321  1.38358
7331  1.20685
7341  1.51282
7351  1.7131
7361  1.52747
7371  1.51739
7381  1.37696
7391  1.07644
7401  1.51857
7411  1.24819
7421  2.11372
7431  1.22312
7441  0.906952
7451  1.26063
7461  1.15311
7471  1.22037
7481  1.40288
7491  1.2418
7501  1.08675
7511  1.2358
7521  1.39497
7531  1.86194
7541  1.0902
7551  1.53713
7561  1.27288
7571  1.14247
7581  1.26096
7591  1.37556
7601  1.63802
7611  1.39727
7621  1.41841
7631  1.24467
7641  1.77021
7651  1.26451
7661  1.37552
7671  1.48134
7681  1.72692
7691  1.0745
7701  1.40469
7711  1.75859
7721  1.36509
7731  1.10977
7741  1.10934
7751  1.38398
7761  1.64416
7771  1.01035
7781  1.2077
7791  1.86417
7801  1.34698
7811  1.5682
7821  1.04314
7831  1.55775
7841  1.36157
7851  1.67243
7861  1.169
7871  1.12809
7881  1.30375
7891  1.40799
7901  1.04192
7911  1.25135
7921  1.33123
7931  1.61264
7941  1.50196
7951  1.70737
7961  0.999116
7971  1.24656
7981  1.49187
7991  1.58671
8001  1.17911
8011  1.17524
8021  1.23681
8031  1.3375
8041  1.05633
8051  1.49582
8061  1.69525
8071  1.33922
8081  1.53966
8091  1.15609
8101  1.4162
8111  1.37054
8121  1.44981
8131  1.39772
8141  1.36109
8151  1.0802
8161  1.02502
8171  2.01792
8181  1.10749
8191  1.56046
8201  0.582688
8211  1.87608
8221  1.66626
8231  1.07806
8241  0.821793
8251  1.081
8261  0.983554
8271  1.02622
8281  1.49547
8291  1.70336
8301  1.18759
8311  1.13223
8321  1.1697
8331  0.725143
8341  1.39186
8351  1.35381
8361  1.08881
8371  1.55045
8381  1.82472
8391  1.74156
8401  1.24834
8411  1.47632
8421  1.42793
8431  0.752088
8441  1.82975
8451  1.68707
8461  0.974552
8471  1.45741
8481  0.885942
8491  1.07177
8501  1.08679
8511  0.581849
8521  1.25342
8531  1.21961
8541  1.32841
8551  1.20987
8561  1.56885
8571  1.40996
8581  1.51149
8591  1.47052
8601  1.46312
8611  1.31289
8621  1.20233
8631  1.58424
8641  1.17658
8651  1.27246
8661  1.4219
8671  1.40646
8681  2.02737
8691  1.83924
8701  1.6929
8711  1.21438
8721  1.20175
8731  1.41705
8741  1.05809
8751  1.34022
8761  1.88033
8771  1.62469
8781  1.28746
8791  1.80218
8801  1.00709
8811  1.56394
8821  1.58959
8831  1.55893
8841  1.36912
8851  1.57422
8861  0.806542
8871  0.995762
8881  1.08912
8891  1.87805
8901  1.25673
8911  1.02452
8921  1.45533
8931  1.07917
8941  1.51372
8951  1.8481
8961  1.41015
8971  2.10046
8981  1.68107
8991  2.0372
9001  1.35832
9011  1.78016
9021  1.38446
9031  1.22456
9041  1.37451
9051  1.7105
9061  1.61542
9071  1.31672
9081  0.819074
9091  1.90275
9101  1.85172
9111  1.87046
9121  1.47516
9131  1.51796
9141  1.43355
9151  1.04539
9161  1.1372
9171  0.929071
9181  0.661839
9191  1.05782
9201  1.39712
9211  1.01683
9221  0.681702
9231  1.58819
9241  2.18561
9251  2.05227
9261  0.962367
9271  1.47055
9281  1.19777
9291  1.52565
9301  1.28243
9311  1.46366
9321  1.46734
9331  1.53611
9341  1.29273
9351  1.90293
9361  1.61004
9371  1.23191
9381  1.37574
9391  0.950221
9401  1.25301
9411  1.36059
9421  1.30584
9431  1.35556
9441  1.52613
9451  1.2263
9461  1.30454
9471  1.80391
9481  1.35814
9491  1.55972
9501  1.60091
9511  1.02132
9521  1.01094
9531  1.21114
9541  1.29136
9551  1.66597
9561  1.75036
9571  1.01222
9581  1.33731
9591  1.69566
9601  1.72628
9611  1.21135
9621  0.712907
9631  0.689782
9641  1.84537
9651  1.42145
9661  0.900333
9671  0.890956
9681  1.50429
9691  1.42031
9701  1.66418
9711  0.928301
9721  1.17565
9731  1.09843
9741  0.814948
9751  2.38172
9761  1.15932
9771  1.39752
9781  1.41057
9791  1.58323
9801  1.87571
9811  1.60584
9821  1.42689
9831  0.976847
9841  0.817542
9851  1.25428
9861  1.49332
9871  1.2126
9881  1.28837
9891  1.33638
9901  1.56296
9911  1.82845
9921  1.68423
9931  1.35035
9941  2.01888
9951  1.69207
9961  1.24331
9971  0.807775
9981  1.11589
9991  1.66707
10001  1.76169
10011  1.69597
10021  1.93622
10031  1.39004
10041  1.3282
10051  1.80134
10061  0.584172
10071  0.958434
10081  1.29612
10091  1.13232
10101  0.973997
10111  1.48159
10121  1.71453
10131  0.811561
10141  1.54892
10151  1.38857
10161  1.28231
10171  1.24442
10181  1.11202
10191  1.20706
10201  1.51239
10211  1.11502
10221  1.24271
10231  1.3481
10241  1.62783
10251  1.03307
10261  1.07309
10271  1.52503
10281  1.19905
10291  1.53935
10301  1.14375
10311  1.21484
10321  1.23496
10331  1.52238
10341  1.18185
10351  1.50253
10361  1.09631
10371  1.23886
10381  1.66772
10391  1.47533
10401  1.43251
10411  1.6574
10421  0.99908
10431  1.67388
10441  1.40662
10451  1.08468
10461  0.981251
10471  1.22901
10481  1.52214
10491  1.2175
10501  1.58189
10511  1.13461
10521  1.27023
10531  1.2384
10541  1.30726
10551  1.22834
10561  1.4812
10571  1.5787
10581  1.15956
10591  1.14183
10601  1.78521
10611  1.8412
10621  1.82044
10631  0.513781
10641  1.89682
10651  1.51847
10661  0.715656
10671  1.21023
10681  1.88104
10691  1.34108
10701  1.16148
10711  2.2411
10721  1.13767
10731  1.93239
10741  2.07769
10751  0.58101
10761  1.00162
10771  0.823681
10781  1.28876
10791  1.99932
10801  1.21655
10811  1.09549
10821  1.09802
10831  1.56601
10841  1.30922
10851  1.19092
10861  0.971787
10871  1.63031
10881  1.35363
10891  1.65002
10901  1.56161
10911  0.698704
10921  1.32911
10931  1.57766
10941  1.42413
10951  1.82553
10961  1.89383
10971  0.825895
10981  1.4591
10991  0.601342
11001  1.28243
11011  1.8383
11021  1.09858
11031  0.953203
11041  1.35919
11051  1.36786
11061  1.00251
11071  1.20566
11081  1.31955
11091  1.39569
11101  1.21711
11111  1.20403
11121  1.02495
11131  1.40807
11141  1.00135
11151  1.25645
11161  1.3178
11171  1.78916
11181  2.11118
11191  1.10348
11201  1.62265
11211  1.55936
11221  1.26021
11231  1.37294
11241  1.00935
11251  1.52151
11261  1.74734
11271  1.30759
11281  1.0882
11291  1.17554
11301  1.41098
11311  1.192
11321  1.26451
11331  0.90914
11341  1.56195
11351  1.19118
11361  1.39259
11371  1.34715
11381  0.949146
11391  1.81133
11401  1.56826
11411  1.31397
11421  1.54829
11431  1.10942
11441  1.748
11451  0.785013
11461  1.3797
11471  1.20831
11481  1.20759
11491  1.5615
11501  0.858468
11511  0.781901
11521  1.01469
11531  1.57361
11541  1.45361
11551  1.26571
11561  2.28757
11571  0.95391
11581  1.45947
11591  1.27794
11601  1.75376
11611  1.73959
11621  1.78884
11631  1.26724
11641  1.72434
11651  1.72666
11661  1.21331
11671  1.12586
11681  0.745497
11691  1.43192
11701  1.22414
11711  1.64076
11721  1.39737
11731  1.48356
11741  1.53423
11751  1.16249
11761  1.16312
11771  1.166
11781  0.947211
11791  1.338
11801  1.13487
11811  1.19341
11821  1.44634
11831  1.16523
11841  1.32332
11851  1.66759
11861  1.38396
11871  1.42135
11881  0.95251
11891  1.47223
11901  1.39931
11911  1.52714
11921  1.21726
11931  1.20366
11941  1.32751
11951  1.44398
11961  1.17911
11971  1.3049
11981  1.53386
11991  1.69252
12001  1.1491
12011  0.877085
12021  1.48057
12031  1.59225
12041  0.885811
12051  1.69846
12061  1.21278
12071  1.44826
12081  1.30796
12091  1.13774
12101  1.23541
12111  1.4626
12121  1.30058
12131  0.345732
12141  1.66751
12151  1.55027
12161  1.31978
12171  0.975478
12181  1.33642
12191  1.17673
12201  1.55521
12211  1.15001
12221  1.32834
12231  1.81971
12241  0.665136
12251  1.19234
12261  1.58876
12271  1.4379
12281  0.969393
12291  1.28051
12301  1.9431
12311  1.74307
12321  1.29022
12331  1.43174
12341  1.08565
12351  1.30223
12361  1.46353
12371  1.25077
12381  1.45378
12391  1.37049
12401  1.13799
12411  1.06695
12421  1.76788
12431  1.34726
12441  1.02987
12451  1.50506
12461  2.17787
12471  1.49439
12481  1.54591
12491  2.08345
12501  1.84579
12511  1.17341
12521  1.63753
12531  1.52438
12541  1.19906
12551  1.31763
12561  1.06217
12571  1.45744
12581  1.09799
12591  0.954804
12601  1.35186
12611  1.54626
12621  1.80761
12631  0.873167
12641  1.80142
12651  1.20412
12661  1.20459
12671  1.34602
12681  1.10897
12691  1.09843
12701  1.14514
12711  1.15925
12721  1.53754
12731  0.938659
12741  1.57293
12751  1.43195
12761  0.935505
12771  1.70133
12781  1.35999
12791  1.50103
12801  1.52663
12811  1.2582
12821  1.14089
12831  1.2307
12841  1.51606
12851  1.46738
12861  1.28055
12871  0.831411
12881  1.68426
12891  1.58901
12901  1.59757
12911  1.3422
12921  1.35875
12931  1.81125
12941  1.30662
12951  1.39146
12961  0.860755
12971  0.776403
12981  1.15484
12991  1.70229
13001  0.968443
13011  1.50961
13021  1.79682
13031  1.1976
13041  2.08416
13051  1.56165
13061  1.48497
13071  1.34912
13081  1.36813
13091  1.95846
13101  1.52316
13111  1.69007
13121  1.47541
13131  1.55998
13141  1.86049
13151  1.94516
13161  1.43701
13171  1.36619
13181  1.39352
13191  1.05761
13201  1.54809
13211  1.64728
13221  1.02345
13231  1.15658
13241  1.38997
13251  1.49332
13261  1.54642
13271  0.484793
13281  2.02925
13291  2.08547
13301  1.8052
13311  1.2671
13321  1.16419
13331  1.98577
13341  1.35679
13351  1.67965
13361  0.944188
13371  1.85754
13381  1.51429
13391  1.56227
13401  1.27586
13411  1.43371
13421  1.15933
13431  0.862036
13441  1.74393
13451  1.65583
13461  1.45917
13471  1.304
13481  1.33147
13491  1.34683
13501  1.17859
13511  0.685833
13521  1.02106
13531  1.75803
13541  0.801332
13551  1.15882
13561  1.05371
13571  1.76403
13581  1.55009
13591  1.12372
13601  1.0481
13611  0.994296
13621  1.27157
13631  1.18036
13641  1.57752
13651  1.37158
13661  1.22127
13671  1.72547
13681  1.19202
13691  1.57905
13701  1.39621
13711  1.49604
13721  1.175
13731  1.66424
13741  0.981358
13751  1.14495
13761  1.12973
13771  1.28108
13781  1.77444
13791  1.63549
13801  1.55699
13811  1.42803
13821  1.39324
13831  1.21163
13841  1.05487
13851  1.25787
13861  1.31548
13871  1.48566
13881  1.19733
13891  1.28142
13901  1.71164
13911  2.00403
13921  1.76894
13931  1.16529
13941  1.23815
13951  1.20229
13961  1.00769
13971  1.01331
13981  1.07043
13991  1.63143
14001  1.23857
14011  1.36428
14021  1.05994
14031  1.23109
14041  1.29642
14051  1.39622
14061  1.61033
14071  1.08571
14081  1.50142
14091  1.35896
14101  1.18817
14111  1.08752
14121  1.38998
14131  1.28674
14141  1.82559
14151  1.10015
14161  1.7149
14171  1.62253
14181  1.97332
14191  1.71026
14201  2.2129
14211  1.67313
14221  1.07366
14231  1.56355
14241  1.26352
14251  1.03228
14261  1.28942
14271  1.69814
14281  1.3996
14291  1.76439
14301  1.14359
14311  1.5927
14321  1.18951
14331  1.6575
14341  1.13199
14351  0.993487
14361  1.09566
14371  1.16118
14381  1.30778
14391  1.31253
14401  1.35475
14411  1.11505
14421  2.1588
14431  1.44357
14441  1.80802
14451  1.33717
14461  1.96862
14471  1.58311
14481  1.68489
14491  1.47466
14501  1.77204
14511  1.32271
14521  1.56217
14531  1.0879
14541  1.39327
14551  0.973176
14561  1.45417
14571  1.42802
14581  1.07069
14591  1.05546
14601  1.27873
14611  1.52697
14621  0.877064
14631  1.25771
14641  1.72452
14651  1.35457
14661  1.41471
14671  0.946834
14681  1.05713
14691  1.62858
14701  1.71266
14711  1.33538
14721  2.01099
14731  1.52435
14741  1.07477
14751  1.03952
14761  1.44448
14771  1.51089
14781  1.70951
14791  1.45367
14801  1.75293
14811  1.40603
14821  1.82732
14831  1.02006
14841  1.20277
14851  1.03699
14861  1.37259
14871  1.71774
14881  1.33828
14891  1.72454
14901  1.14259
14911  1.24425
14921  1.11407
14931  0.865027
14941  1.24291
14951  1.19013
14961  1.37674
14971  1.0719
14981  1.5477
14991  0.776734
5001  -0.737386
5011  -0.190996
5021  -0.54543
5031  -1.61272
5041  -1.04229
5051  -1.06925
5061  -0.686731
5071  -0.248866
5081  -1.23748
5091  -0.841286
5101  -0.690816
5111  -0.742195
5121  -1.1596
5131  -1.49353
5141  -1.24893
5151  -1.59825
5161  -1.06602
5171  -0.751847
5181  -1.424
5191  0.638286
5201  -1.13895
5211  -1.63058
5221  -1.8388
5231  -0.156947
5241  -0.253965
5251  -0.768457
5261  -1.01678
5271  -0.537714
5281  -1.06468
5291  -0.407319
5301  -0.363601
5311  -0.814224
5321  0.189714
5331  -0.490416
5341  -0.172159
5351  -0.499706
5361  -0.901598
5371  -2.09198
5381  -1.11904
5391  -0.679523
5401  0.0840649
5411  -0.691323
5421  -1.59162
5431  -0.536791
5441  -0.686093
5451  -1.11612
5461  -0.471587
5471  -1.19934
5481  -0.337411
5491  -0.444723
5501  -0.241532
5511  -0.826238
5521  -1.7461
5531  -1.05506
5541  -0.506287
5551  -1.29266
5561  -0.90619
5571  -0.752418
5581  -0.74765
5591  -0.504799
5601  -1.16228
5611  -1.15496
5621  -1.48827
5631  -0.149684
5641  -0.779945
5651  -0.648199
5661  -0.370795
5671  -0.57048
5681  -1.21597
5691  -0.77475
5701  -1.19084
5711  -1.32808
5721  -0.898188
5731  -0.333301
5741  -0.992822
5751  -1.14107
5761  -1.16046
5771  -0.410015
5781  -0.801848
5791  -0.0687876
5801  -0.619733
5811  -1.09876
5821  -0.872495
5831  -1.5415
5841  -1.01087
5851  -1.07044
5861  -0.445955
5871  -1.29319
5881  -1.37064
5891  -0.891479
5901  -0.594677
5911  -1.37387
5921  -1.39935
5931  0.172638
5941  -0.282401
5951  -0.869388
5961  -0.566639
5971  -0.672955
5981  -0.625087
5991  -1.37695
6001  -0.915398
6011  -1.62388
6021  -0.762872
6031  -0.979836
6041  -1.0776
6051  -1.51456
6061  -1.10541
6071  -1.24988
6081  -0.0435884
6091  -0.36672
6101  -1.38742
6111  -0.65687
6121  -0.718087
6131  -0.888515
6141  -1.10152
6151  -1.06843
6161  -0.256827
6171  -1.22118
6181  -0.807071
6191  -0.351253
6201  -0.0593408
6211  -1.43327
6221  -0.680649
6231  -1.05954
6241  -0.43645
6251  -0.531393
6261  -0.896881
6271  -1.43592
6281  -0.205034
6291  -0.888701
6301  -0.49514
6311  -0.163784
6321  -0.291723
6331  -0.539778
6341  0.0166968
6351  -1.15162
6361  -1.21273
6371  -0.527173
6381  -1.24551
6391  -0.601041
6401  -0.675853
6411  -0.57951
6421  0.470647
6431  -0.385529
6441  -0.502414
6451  -0.640351
6461  -1.21855
6471  -0.795355
6481  0.332908
6491  -0.420075
6501  -0.405563
6511  -0.530018
6521  -1.45002
6531  -1.18334
6541  -0.625248
6551  -1.33732
6561  -1.49583
6571  -1.20297
6581  -1.16558
6591  -0.728691
6601  -0.892207
6611  -0.74716
6621  -0.0958012
6631  -0.616649
6641  -1.04305
6651  -0.782995
6661  -0.949999
6671  -0.572737
6681  -1.12039
6691  -0.907242
6701  -0.66794
6711  -0.8994
6721  -1.40499
6731  -0.664669
6741  -0.523441
6751  -0.833965
6761  -0.768773
6771  -0.253166
6781  0.337694
6791  -1.21853
6801  -0.852758
6811  -1.32198
6821  -1.09897
6831  -0.962704
6841  -0.321169
6851  -1.18659
6861  -0.831255
6871  -0.573345
6881  -0.518051
6891  0.0794542
6901  -0.356579
6911  0.0219385
6921  -0.100532
6931  -1.11614
6941  -1.31321
6951  -1.15936
6961  -0.22318
6971  -0.462815
6981  -1.22175
6991  -1.47508
7001  -1.71365
7011  -0.355081
7021  -0.649149
7031  0.113806
7041  -0.622511
7051  -0.761841
7061  -1.11048
7071  -0.502197
7081  -0.119548
7091  -1.02783
7101  -0.934691
7111  -0.829051
7121  -0.839838
7131  -1.53747
7141  -0.377306
7151  -1.05529
7161  -2.1906
7171  -1.62734
7181  0.659957
7191  -1.13071
7201  -0.919783
7211  -0.871766
7221  -0.346398
7231  -0.647512
7241  -0.992131
7251  -0.931721
7261  -0.901039
7271  -0.916165
7281  -1.13621
7291  -1.4149
7301  -0.882956
7311  -1.4941
7321  -0.742713
7331  -1.18949
7341  -1.19328
7351  -1.57876
7361  -1.05918
7371  -1.05437
7381  -0.891284
7391  0.481432
7401  -0.943019
7411  -0.718207
7421  -1.59171
7431  -0.516027
7441  -0.0501186
7451  -0.345554
7461  -0.46969
7471  -0.991284
7481  -0.594747
7491  -0.509343
7501  -0.866782
7511  -0.0666361
7521  -0.706505
7531  -1.39029
7541  -0.494089
7551  -1.55287
7561  -0.470697
7571  -0.810054
7581  -1.47775
7591  -1.14969
7601  -0.716401
7611  -0.997995
7621  -1.16589
7631  -0.806857
7641  -1.22051
7651  -0.942543
7661  -0.847042
7671  -0.724965
7681  -1.63087
7691  -1.10811
7701  -0.708254
7711  -0.799397
7721  -0.74795
7731  -0.767345
7741  -0.51528
7751  -0.65697
7761  -0.925926
7771  -0.92189
7781  -0.409857
7791  -1.29571
7801  -0.756107
7811  -1.28833
7821  -0.444099
7831  -1.37935
7841  -0.830754
7851  -1.37741
7861  -0.694006
7871  -0.461487
7881  -1.17743
7891  -1.25706
7901  -1.05941
7911  0.00809676
7921  -0.200306
7931  -0.938377
7941  -1.35906
7951  -0.980407
7961  -0.727906
7971  -1.76185
7981  -0.899628
7991  -1.32608
8001  -0.748628
8011  -0.352178
8021  -0.437893
8031  -0.652616
8041  -0.171984
8051  -1.59886
8061  -1.31296
8071  -0.745697
8081  -0.769044
8091  -0.379432
8101  -1.23963
8111  -0.762617
8121  -0.500851
8131  -1.01756
8141  -0.722694
8151  -0.413099
8161  -0.631521
8171  -1.38567
8181  -0.324035
8191  -0.672302
8201  0.777817
8211  -0.990508
8221  -0.77986
8231  -0.284513
8241  -0.043266
8251  -0.681418
8261  -0.546756
8271  -0.476723
8281  -1.35627
8291  -0.837127
8301  -0.436367
8311  -0.562233
8321  -0.823577
8331  -0.417995
8341  -0.823658
8351  -1.01431
8361  -0.845055
8371  -1.13824
8381  -0.971404
8391  -0.92601
8401  -1.38056
8411  -0.781657
8421  -1.333
8431  0.0180841
8441  -1.47062
8451  -1.16414
8461  -0.386228
8471  -1.20332
8481  -0.512642
8491  -0.512487
8501  -0.532881
8511  -0.572098
8521  -0.834191
8531  -1.02308
8541  -0.453047
8551  -0.149053
8561  -0.974387
8571  -0.733476
8581  -1.32651
8591  -1.38833
8601  -0.618753
8611  -0.779293
8621  -0.928182
8631  -1.29871
8641  -0.701995
8651  -0.532282
8661  -0.506501
8671  -1.00932
8681  -1.04392
8691  -1.67152
8701  -0.839599
8711  -0.121573
8721  -0.40073
8731  -0.723967
8741  -0.434191
8751  -1.21109
8761  -1.54915
8771  -0.832668
8781  -0.456852
8791  -1.22675
8801  -0.38172
8811  -1.41496
8821  -0.97631
8831  -1.10535
8841  -0.847981
8851  -1.86938
8861  -0.578234
8871  -0.139838
8881  -0.759614
8891  -1.1598
8901  -1.24336
8911  -0.137671
8921  -0.762787
8931  -0.680067
8941  -0.957339
8951  -1.21053
8961  -0.5155
8971  -1.85941
8981  -1.4077
8991  -1.03012
9001  -0.775809
9011  -1.25913
9021  -2.22164
9031  -0.0427841
9041  -0.581824
9051  -1.50962
9061  -1.59269
9071  -0.685055
9081  -0.568643
9091  -1.58916
9101  -1.22644
9111  -1.31966
9121  -0.952362
9131  -0.358901
9141  -1.1677
9151  -0.51557
9161  -1.06581
9171  -0.712238
9181  -0.486949
9191  -0.586407
9201  -1.09785
9211  -0.511536
9221  -0.288381
9231  -1.44187
9241  -1.81359
9251  -1.33426
9261  -0.24034
9271  -0.586476
9281  -0.774699
9291  -0.842985
9301  -0.819787
9311  -1.15566
9321  -0.765109
9331  -1.12119
9341  -0.967305
9351  -1.74025
9361  -1.39136
9371  -0.609996
9381  -1.40395
9391  -0.469105
9401  -0.637409
9411  -1.32088
9421  -1.22645
9431  -0.518812
9441  -1.04449
9451  -1.23576
9461  -1.09909
9471  -1.90922
9481  -0.560726
9491  -0.775312
9501  -0.850792
9511  -1.09441
9521  -0.983819
9531  -1.27007
9541  -0.748836
9551  -1.05963
9561  -1.4054
9571  -0.741138
9581  -1.10985
9591  -1.80699
9601  -1.21197
9611  -0.443533
9621  -1.04398
9631  -1.08203
9641  -1.19391
9651  -0.735594
9661  -1.26385
9671  -0.618403
9681  -0.591866
9691  -0.579351
9701  -0.281546
9711  -0.286704
9721  -0.96543
9731  -0.618841
9741  -0.141218
9751  -1.87279
9761  -0.631529
9771  -0.447311
9781  -1.04465
9791  -1.31646
9801  -0.887786
9811  -1.02891
9821  -0.898804
9831  0.139843
9841  -0.0984933
9851  -0.379562
9861  -0.896346
9871  -0.308637
9881  -0.579551
9891  -0.374186
9901  -0.220674
9911  -2.08276
9921  -1.99836
9931  -0.162157
9941  -1.21901
9951  -1.14676
9961  -0.651115
9971  -0.566827
9981  -0.775266
9991  -1.43335
10001  -1.56055
10011  -1.41214
10021  -1.72295
10031  -0.29159
10041  -0.8753
10051  -1.28212
10061  -0.333939
10071  -0.586949
10081  -0.573775
10091  -0.44605
10101  -0.592725
10111  -0.627495
10121  -0.376805
10131  0.7518
10141  -1.14051
10151  -1.05437
10161  -0.630858
10171  -0.614994
10181  -1.00927
10191  -0.250383
10201  -1.03299
10211  -0.171844
10221  -0.734531
10231  -0.822953
10241  -1.16848
10251  -0.868748
10261  -1.07965
10271  -1.579
10281  0.181497
10291  -0.865682
10301  -1.36417
10311  -0.786416
10321  -0.104915
10331  -1.2928
10341  -0.179703
10351  -0.594245
10361  -0.324387
10371  -0.518376
10381  -1.42298
10391  -0.63135
10401  -0.905128
10411  -0.677378
10421  -1.06977
10431  -1.24255
10441  -0.694655
10451  -0.200994
10461  -0.967249
10471  -0.757612
10481  -0.849511
10491  -0.988474
10501  -1.2766
10511  -0.816887
10521  -0.819622
10531  -1.17071
10541  -0.84899
10551  -1.19839
10561  -1.08099
10571  -1.69095
10581  -0.775941
10591  -0.123657
10601  -1.25958
10611  -1.33434
10621  -1.07585
10631  -0.16632
10641  -1.56336
10651  -0.650845
10661  0.236175
10671  -1.00257
10681  -1.98901
10691  -0.145146
10701  -0.829928
10711  -2.77396
10721  -0.94975
10731  -1.32912
10741  -1.48102
10751  -0.939351
10761  -0.927503
10771  0.0751633
10781  -0.155999
10791  -0.839627
10801  -0.773736
10811  -0.152959
10821  -0.432712
10831  -1.03747
10841  -0.394642
10851  -0.409488
10861  -0.289919
10871  -0.783026
10881  -0.84077
10891  -0.963431
10901  -1.04863
10911  -0.265837
10921  -1.10089
10931  -1.3266
10941  -1.11913
10951  -0.936761
10961  -1.44501
10971  -0.0456072
10981  -0.69702
10991  -0.222536
11001  -1.14811
11011  -1.14232
11021  -0.351716
11031  -0.388851
11041  -0.929519
11051  -1.24297
11061  -0.0488094
11071  -0.37359
11081  -0.561627
11091  -0.889318
11101  -0.286821
11111  -0.386732
11121  -0.665278
11131  -0.748273
11141  0.224045
11151  -0.802176
11161  -0.834202
11171  -1.39106
11181  -1.76914
11191  -1.13362
11201  -1.4713
11211  -0.4419
11221  -0.729346
11231  -0.790766
11241  -0.55125
11251  -0.804178
11261  -1.63156
11271  -1.00344
11281  -0.903691
11291  -0.751612
11301  -0.590612
11311  -0.727861
11321  -0.72495
11331  -1.0314
11341  -1.41275
11351  -0.659904
11361  -1.01284
11371  -1.29744
11381  -1.01309
11391  -1.78477
11401  -1.21389
11411  -0.678904
11421  -0.960437
11431  -1.22432
11441  -0.834091
11451  -0.0423131
11461  -1.14679
11471  -0.934459
11481  -0.502535
11491  -1.16547
11501  -0.321809
11511  -0.317519
11521  -0.264699
11531  -0.889944
11541  -0.945536
11551  -0.703116
11561  -1.07245
11571  -0.181751
11581  -0.468457
11591  -1.18032
11601  -1.09259
11611  -1.07833
11621  -0.454129
11631  -1.32607
11641  -0.713731
11651  -1.21903
11661  -1.24184
11671  -0.556317
11681  -0.0465952
11691  -1.34268
11701  -0.990877
11711  -1.39519
11721  -0.299886
11731  -1.19627
11741  -1.3033
11751  -0.506807
11761  -0.400243
11771  -0.697166
11781  -0.669667
11791  -1.1449
11801  -0.702405
11811  -0.475786
11821  -1.60507
11831  -0.631701
11841  -0.407078
11851  -1.05203
11861  -0.659191
11871  -0.382854
11881  0.00693523
11891  -0.497507
11901  -0.445227
11911  -0.895324
11921  -0.752393
11931  -0.788506
11941  -0.916339
11951  -1.00405
11961  -0.547581
11971  -0.332383
11981  -0.861394
11991  -0.986186
12001  -0.944484
12011  -0.49237
12021  -1.21246
12031  -0.70554
12041  0.664409
12051  -1.38444
12061  0.297374
12071  -0.702629
12081  -0.729638
12091  -1.1051
12101  -0.94957
12111  -0.437097
12121  -1.11744
12131  -0.327008
12141  -0.862298
12151  -0.744191
12161  -0.76177
12171  -0.463301
12181  -0.301577
12191  -0.448975
12201  -1.07365
12211  -0.809126
12221  -0.271089
12231  -1.30207
12241  -0.250085
12251  -0.488526
12261  -0.773111
12271  -0.623649
12281  -0.468125
12291  -1.23288
12301  -0.989551
12311  -0.813556
12321  -1.16533
12331  -0.926612
12341  -0.461444
12351  -1.3509
12361  -0.926224
12371  -0.966054
12381  -1.16816
12391  -1.15866
12401  -0.395324
12411  -1.01575
12421  -1.37507
12431  -1.10307
12441  -0.886875
12451  -1.35444
12461  -2.19279
12471  -0.64336
12481  -1.24417
12491  -2.26006
12501  -1.04134
12511  -0.337969
12521  -1.20425
12531  -0.993015
12541  -0.986405
12551  -0.995662
12561  -0.650261
12571  -0.879424
12581  -0.356687
12591  0.272664
12601  -0.627926
12611  -0.703693
12621  -0.779243
12631  -0.649137
12641  -1.29084
12651  -0.770135
12661  -0.624078
12671  -1.19096
12681  -0.871008
12691  -1.27164
12701  -0.229861
12711  -0.991741
12721  -1.45987
12731  -0.625948
12741  -1.27491
12751  -1.14289
12761  -0.642152
12771  -0.861721
12781  -1.83698
12791  -0.952144
12801  -0.545657
12811  -0.229132
12821  -0.653103
12831  -0.418429
12841  -0.77681
12851  -1.27735
12861  -1.07825
12871  -1.01512
12881  -0.726729
12891  -1.09701
12901  -1.43205
12911  -1.15469
12921  -0.284945
12931  -0.935727
12941  -0.258951
12951  -0.533211
12961  -0.564494
12971  -0.917474
12981  -1.11012
12991  -0.496611
13001  -0.304805
13011  -0.803733
13021  -1.20649
13031  -1.22683
13041  -1.29549
13051  -0.804437
13061  -1.01353
13071  -0.580222
13081  -0.616541
13091  -1.37737
13101  -1.17624
13111  -0.718794
13121  -1.33463
13131  -0.307527
13141  -0.953252
13151  -1.60635
13161  -0.635597
13171  -1.22202
13181  -1.12913
13191  -0.551295
13201  -0.963578
13211  -0.892662
13221  -0.133314
13231  -0.223119
13241  -1.62243
13251  -1.4992
13261  -1.43921
13271  -0.00826557
13281  -1.49428
13291  -1.51557
13301  -1.62892
13311  -0.9513
13321  -0.718104
13331  -1.55103
13341  -0.543894
13351  -1.61805
13361  -0.397996
13371  -1.88212
13381  -1.22565
13391  -0.570136
13401  -0.51333
13411  -1.4378
13421  -0.68755
13431  -0.0358704
13441  -1.12412
13451  -1.34927
13461  -0.693014
13471  -0.345298
13481  -0.614163
13491  -0.779453
13501  -0.134549
13511  -0.655161
13521  -1.34718
13531  -0.926131
13541  -0.113699
13551  -1.20687
13561  -0.259918
13571  -1.41057
13581  -1.46821
13591  -0.500106
13601  -0.594343
13611  -0.38604
13621  -1.16391
13631  -0.938921
13641  -1.35978
13651  -0.849479
13661  -1.04576
13671  -1.68573
13681  -0.0306454
13691  -1.40693
13701  -1.09271
13711  -0.232501
13721  -0.461525
13731  -1.09504
13741  -0.210771
13751  -0.802269
13761  -0.977534
13771  -0.915719
13781  -0.939816
13791  -1.98632
13801  -0.165146
13811  -1.90028
13821  -1.53968
13831  -0.869086
13841  -0.895637
13851  -0.420817
13861  -0.0941423
13871  -0.725309
13881  -1.32151
13891  -0.566855
13901  -1.77642
13911  -2.00565
13921  -1.56741
13931  -0.365329
13941  -0.661605
13951  -0.483138
13961  -0.613338
13971  -0.330684
13981  -0.384964
13991  -1.13353
14001  -1.21525
14011  -1.10154
14021  -0.523901
14031  -0.311973
14041  -0.519649
14051  -1.08541
14061  -1.25046
14071  -0.733006
14081  -0.354615
14091  -0.718659
14101  -0.546853
14111  -0.078596
14121  -0.612155
14131  -1.1756
14141  -1.84645
14151  -0.666684
14161  -1.12602
14171  -1.51
14181  -2.00572
14191  -1.06504
14201  -1.76778
14211  -1.42627
14221  -1.0456
14231  -0.865084
14241  -0.955045
14251  -0.806942
14261  -0.977903
14271  -1.33578
14281  -0.363923
14291  -1.20727
14301  -1.01552
14311  -1.71292
14321  -0.477823
14331  -1.1756
14341  -0.514352
14351  0.30714
14361  -0.652766
14371  -0.401348
14381  -0.650198
14391  -0.631674
14401  -1.10276
14411  -0.856427
14421  -1.46472
14431  -0.659706
14441  -1.58487
14451  -1.14536
14461  -2.23892
14471  -0.914647
14481  -0.756654
14491  -0.93412
14501  -0.963237
14511  -1.24461
14521  -1.16166
14531  -0.878266
14541  -0.716941
14551  -0.626162
14561  -0.623027
14571  -1.24459
14581  -0.640669
14591  -1.04624
14601  -1.25299
14611  -0.638027
14621  -0.123287
14631  -0.60338
14641  -1.38741
14651  -0.989569
14661  -1.18347
14671  -0.672655
14681  -0.637164
14691  -1.36221
14701  -1.11691
14711  -0.969504
14721  -1.38209
14731  -1.01999
14741  -1.30741
14751  -1.28925
14761  -1.02416
14771  -0.564565
14781  -0.396107
14791  -0.183963
14801  -1.7047
14811  -0.0580177
14821  -1.31319
14831  -0.882732
14841  -0.246804
14851  -0.721981
14861  -1.16812
14871  -1.17843
14881  -0.62316
14891  -1.32797
14901  -0.529735
14911  -1.04888
14921  -0.227559
14931  -0.420575
14941  -0.109517
14951  -0.367295
14961  -0.0854274
14971  -0.245752
14981  -2.19495
14991  -0.82067
5001  0.329358
5011  0.207789
5021  0.315607
5031  0.468724
5041  0.862708
5051  0.369806
5061  0.620387
5071  0.38202
5081  0.606455
5091  0.476626
5101  0.483147
5111  0.448312
5121  0.551572
5131  0.311847
5141  0.384225
5151  0.340169
5161  0.267242
5171  0.439132
5181  0.654251
5191  0.433848
5201  0.392965
5211  0.186356
5221  0.35108
5231  0.474341
5241  0.314573
5251  0.392177
5261  0.266873
5271  0.138099
5281  0.189832
5291  0.207077
5301  0.322433
5311  0.308992
5321  0.600804
5331  0.587822
5341  0.428268
5351  0.576209
5361  0.57083
5371  0.444484
5381  0.390482
5391  0.282361
5401  0.870807
5411  0.244494
5421  0.176051
5431  0.141604
5441  0.167453
5451  0.163925
5461  0.142532
5471  0.183655
5481  0.489069
5491  0.227401
5501  0.280515
5511  0.481918
5521  0.219398
5531  0.183149
5541  0.24642
5551  0.363907
5561  0.259649
5571  0.326504
5581  0.280966
5591  0.313909
5601  0.477401
5611  0.448509
5621  0.621609
5631  0.535418
5641  0.297219
5651  0.34295
5661  0.454123
5671  0.203841
5681  0.307741
5691  0.386195
5701  0.255297
5711  0.447083
5721  0.607268
5731  0.286633
5741  0.310087
5751  0.314353
5761  0.584132
5771  0.244751
5781  0.255057
5791  0.257923
5801  0.341833
5811  0.318707
5821  0.180702
5831  0.304839
5841  0.293225
5851  0.275571
5861  0.330355
5871  0.398167
5881  0.412036
5891  0.194855
5901  0.172947
5911  0.490069
5921  0.605993
5931  0.416139
5941  0.530668
5951  0.389773
5961  0.588196
5971  0.38576
5981  0.412233
5991  0.563059
6001  0.816612
6011  0.370392
6021  0.367016
6031  0.483466
6041  0.616388
6051  0.669371
6061  0.34659
6071  0.314191
6081  0.341386
6091  0.18168
6101  0.242954
6111  0.302336
6121  0.296839
6131  0.474214
6141  0.307886
6151  0.657881
6161  0.343125
6171  0.468809
6181  0.258225
6191  0.597497
6201  0.569681
6211  0.432774
6221  0.296032
6231  0.215468
6241  0.270568
6251  0.374887
6261  0.324196
6271  0.286769
6281  0.244582
6291  0.390924
6301  0.288445
6311  0.185437
6321  0.235888
6331  0.186017
6341  0.428782
6351  0.522742
6361  0.632708
6371  0.631875
6381  0.231637
6391  0.263531
6401  0.354852
6411  0.273391
6421  0.517433
6431  0.580411
6441  0.218336
6451  0.309734
6461  0.198669
6471  0.328094
6481  0.384709
6491  0.470565
6501  0.52908
6511  0.714948
6521  0.442507
6531  0.391201
6541  0.541449
6551  0.556832
6561  0.248492
6571  0.209572
6581  0.423324
6591  0.292621
6601  0.184819
6611  0.234793
6621  0.488071
6631  0.554936
6641  0.285125
6651  0.326915
6661  0.426296
6671  0.258923
6681  0.281755
6691  0.219429
6701  0.360769
6711  0.277829
6721  0.481564
6731  0.155646
6741  0.230553
6751  0.228589
6761  0.21141
6771  0.301471
6781  0.234375
6791  0.195556
6801  0.55667
6811  0.301185
6821  0.328592
6831  0.364663
6841  0.231414
6851  0.193359
6861  0.289499
6871  0.28672
6881  0.297383
6891  0.290644
6901  0.342639
6911  0.47135
6921  0.375189
6931  0.552992
6941  0.372916
6951  0.27406
6961  0.508103
6971  0.333498
6981  0.51165
6991  0.360317
7001  0.320074
7011  0.323807
7021  0.644876
7031  0.51194
7041  0.678021
7051  0.375738
7061  0.257832
7071  0.40475
7081  0.289064
7091  0.371823
7101  0.22903
7111  0.273211
7121  0.286203
7131  0.565878
7141  0.480557
7151  0.585763
7161  0.36733
7171  0.362941
7181  0.599559
7191  0.374662
7201  0.342716
7211  0.402911
7221  0.450165
7231  0.502784
7241  0.276517
7251  0.399484
7261  0.173833
7271  0.202558
7281  0.388714
7291  0.291274
7301  0.276158
7311  0.281772
7321  0.423472
7331  0.206245
7341  0.138032
7351  0.182485
7361  0.186849
7371  0.204694
7381  0.27426
7391  0.2782
7401  0.468166
7411  0.396733
7421  0.434586
7431  0.546283
7441  0.302907
7451  0.225127
7461  0.389604
7471  0.41975
7481  0.287101
7491  0.612437
7501  0.348677
7511  0.326711
7521  0.353764
7531  0.340406
7541  0.311789
7551  0.308392
7561  0.204958
7571  0.336579
7581  0.38991
7591  0.268534
7601  0.45051
7611  0.398141
7621  0.414387
7631  0.473601
7641  0.614586
7651  0.440646
7661  0.495631
7671  0.341551
7681  0.488878
7691  0.57003
7701  0.257186
7711  0.383339
7721  0.651513
7731  0.318287
7741  0.314604
7751  0.340701
7761  0.217499
7771  0.162324
7781  0.21348
7791  0.325296
7801  0.298629
7811  0.157583
7821  0.20167
7831  0.21358
7841  0.226443
7851  0.281492
7861  0.178002
7871  0.225056
7881  0.185532
7891  0.338754
7901  0.334921
7911  0.242461
7921  0.247567
7931  0.329912
7941  0.296864
7951  0.274041
7961  0.226765
7971  0.448297
7981  0.285159
7991  0.24765
8001  0.316887
8011  0.289517
8021  0.453954
8031  0.33795
8041  0.798723
8051  0.604777
8061  0.404622
8071  0.336746
8081  0.267712
8091  0.228334
8101  0.256988
8111  0.186105
8121  0.225474
8131  0.183102
8141  0.160507
8151  0.481661
8161  0.484873
8171  0.31794
8181  0.39855
8191  0.328406
8201  0.773771
8211  0.695121
8221  0.233701
8231  0.233083
8241  0.372925
8251  0.398579
8261  0.324697
8271  0.133508
8281  0.271172
8291  0.395664
8301  0.347963
8311  0.446679
8321  0.283207
8331  0.567802
8341  0.246321
8351  0.308026
8361  0.40878
8371  0.499504
8381  0.388089
8391  0.328406
8401  0.414607
8411  0.322681
8421  0.379528
8431  0.497364
8441  0.359545
8451  0.250967
8461  0.280805
8471  0.400953
8481  0.427928
8491  0.328415
8501  0.268219
8511  0.520735
8521  0.365082
8531  0.471442
8541  0.581113
8551  0.498843
8561  0.664926
8571  0.636169
8581  0.307587
8591  0.247896
8601  0.340962
8611  0.339213
8621  0.529349
8631  0.343422
8641  0.299148
8651  0.339985
8661  0.229979
8671  0.258009
8681  0.389374
8691  0.453301
8701  0.446762
8711  0.237752
8721  0.194945
8731  0.239965
8741  0.287159
8751  0.453352
8761  0.442292
8771  0.302967
8781  0.435087
8791  0.377414
8801  0.380329
8811  0.418873
8821  0.431007
8831  0.242696
8841  0.288853
8851  0.404502
8861  0.241803
8871  0.331541
8881  0.296696
8891  0.451503
8901  0.457563
8911  0.279437
8921  0.180072
8931  0.285602
8941  0.321953
8951  0.218849
8961  0.391491
8971  0.457031
8981  0.261175
8991  0.331761
9001  0.346064
9011  0.427834
9021  0.677108
9031  0.457295
9041  0.411618
9051  0.429844
9061  0.865653
9071  0.34757
9081  0.292984
9091  0.508999
9101  0.324644
9111  0.360975
9121  0.294071
9131  0.245878
9141  0.454312
9151  0.624065
9161  0.225258
9171  0.342288
9181  0.277091
9191  0.316486
9201  0.350108
9211  0.568133
9221  0.537422
9231  0.414228
9241  0.36841
9251  0.608099
9261  0.479666
9271  0.281288
9281  0.317137
9291  0.278807
9301  0.315397
9311  0.199303
9321  0.384125
9331  0.24951
9341  0.192899
9351  0.259908
9361  0.139031
9371  0.191196
9381  0.220806
9391  0.363967
9401  0.370973
9411  0.445417
9421  0.35411
9431  0.382325
9441  0.510672
9451  0.319439
9461  0.298348
9471  0.308161
9481  0.519501
9491  0.523155
9501  0.458699
9511  0.573229
9521  0.618426
9531  0.384479
9541  0.245958
9551  0.207311
9561  0.495735
9571  0.327262
9581  0.553936
9591  0.293865
9601  0.216041
9611  0.257238
9621  0.473858
9631  0.609543
9641  0.563493
9651  0.583974
9661  0.32085
9671  0.299426
9681  0.289592
9691  0.515452
9701  0.347108
9711  0.35453
9721  0.368398
9731  0.204357
9741  0.417561
9751  0.392527
9761  0.288775
9771  0.313654
9781  0.25683
9791  0.313156
9801  0.360207
9811  0.368874
9821  0.313132
9831  0.393494
9841  0.273566
9851  0.379319
9861  0.55645
9871  0.295752
9881  0.35786
9891  0.432721
9901  0.512886
9911  0.634574
9921  0.37771
9931  0.340142
9941  0.447841
9951  0.557698
9961  0.480225
9971  0.423949
9981  0.411014
9991  0.473762
10001  0.393943
10011  0.378502
10021  0.359045
10031  0.272578
10041  0.278127
10051  0.469631
10061  0.735689
10071  0.302765
10081  0.351876
10091  0.347409
10101  0.371846
10111  0.418554
10121  0.328302
10131  0.23796
10141  0.326181
10151  0.204248
10161  0.262125
10171  0.183563
10181  0.247042
10191  0.465985
10201  0.241436
10211  0.383494
10221  0.309034
10231  0.233868
10241  0.206618
10251  0.280063
10261  0.158053
10271  0.407207
10281  0.54166
10291  0.27397
10301  0.563199
10311  0.322629
10321  0.228214
10331  0.219237
10341  0.202525
10351  0.137546
10361  0.129398
10371  0.107418
10381  0.240585
10391  0.185904
10401  0.232499
10411  0.269954
10421  0.246478
10431  0.249158
10441  0.374725
10451  0.418139
10461  0.279762
10471  0.28035
10481  0.147651
10491  0.193384
10501  0.182137
10511  0.262786
10521  0.235523
10531  0.162526
10541  0.437702
10551  0.334216
10561  0.363916
10571  0.297461
10581  0.258653
10591  0.281963
10601  0.328078
10611  0.489141
10621  0.549267
10631  0.771919
10641  0.40403
10651  0.381945
10661  0.459123
10671  0.511356
10681  0.409069
10691  0.404315
10701  0.762909
10711  0.528605
10721  0.296626
10731  0.48849
10741  0.651002
10751  0.444127
10761  0.418748
10771  0.341239
10781  0.235378
10791  0.249358
10801  0.319974
10811  0.398316
10821  0.330843
10831  0.428137
10841  0.310665
10851  0.253749
10861  0.179697
10871  0.184642
10881  0.137537
10891  0.184712
10901  0.124479
10911  0.106434
10921  0.105599
10931  0.230033
10941  0.362094
10951  0.378651
10961  0.404657
10971  0.492032
10981  0.507647
10991  0.492088
11001  0.399941
11011  0.423263
11021  0.345251
11031  0.328013
11041  0.20278
11051  0.184837
11061  0.178456
11071  0.211387
11081  0.267012
11091  0.180156
11101  0.205913
11111  0.34373
11121  0.275552
11131  0.203224
11141  0.536408
11151  0.52007
11161  0.426773
11171  0.350779
11181  0.609513
11191  0.56387
11201  0.670075
11211  0.583889
11221  0.298664
11231  0.352735
11241  0.39257
11251  0.199271
11261  0.288593
11271  0.214685
11281  0.206121
11291  0.333511
11301  0.318307
11311  0.421654
11321  0.365134
11331  0.230903
11341  0.250484
11351  0.237385
11361  0.195974
11371  0.638166
11381  0.404479
11391  0.332565
11401  0.322053
11411  0.30719
11421  0.414064
11431  0.449665
11441  0.280303
11451  0.557004
11461  0.282071
11471  0.288309
11481  0.376375
11491  0.308569
11501  0.450404
11511  0.424959
11521  0.34273
11531  0.340384
11541  0.469426
11551  0.457809
11561  0.677888
11571  0.513282
11581  0.353279
11591  0.499727
11601  0.467641
11611  0.432025
11621  0.539966
11631  0.88525
11641  0.785313
11651  0.463032
11661  0.28435
11671  0.246959
11681  0.331685
11691  0.329746
11701  0.230226
11711  0.525589
11721  0.477114
11731  0.209146
11741  0.14274
11751  0.246551
11761  0.386451
11771  0.398819
11781  0.275983
11791  0.484298
11801  0.405519
11811  0.45782
11821  0.340055
11831  0.20711
11841  0.255582
11851  0.428599
11861  0.413429
11871  0.327712
11881  0.207767
11891  0.249577
11901  0.211495
11911  0.41898
11921  0.267037
11931  0.515772
11941  0.329811
11951  0.357592
11961  0.306433
11971  0.300151
11981  0.500029
11991  0.312649
12001  0.303538
12011  0.328048
12021  0.40135
12031  0.331801
12041  0.722809
12051  0.483972
12061  0.612134
12071  0.399805
12081  0.487984
12091  0.270109
12101  0.404957
12111  0.234368
12121  0.3791
12131  0.405418
12141  0.268803
12151  0.21067
12161  0.180399
12171  0.302309
12181  0.273219
12191  0.637948
12201  0.323858
12211  0.331588
12221  0.571958
12231  0.54813
12241  0.659767
12251  0.218182
12261  0.106633
12271  0.12703
12281  0.19913
12291  0.408445
12301  0.596442
12311  0.381313
12321  0.186814
12331  0.219489
12341  0.372608
12351  0.58598
12361  0.330734
12371  0.3908
12381  0.389498
12391  0.370686
12401  0.341598
12411  0.372099
12421  0.293922
12431  0.149519
12441  0.313469
12451  0.262623
12461  0.495221
12471  0.51885
12481  0.413467
12491  0.549207
12501  0.246184
12511  0.200034
12521  0.210923
12531  0.290042
12541  0.464869
12551  0.393648
12561  0.29823
12571  0.318032
12581  0.393637
12591  0.334378
12601  0.375282
12611  0.383007
12621  0.707348
12631  0.299211
12641  0.651023
12651  0.236708
12661  0.309107
12671  0.295235
12681  0.383819
12691  0.429241
12701  0.416155
12711  0.425238
12721  0.246216
12731  0.310394
12741  0.244646
12751  0.185367
12761  0.318095
12771  0.501774
12781  0.328851
12791  0.358446
12801  0.356251
12811  0.42718
12821  0.486163
12831  0.288967
12841  0.274094
12851  0.194164
12861  0.317936
12871  0.583626
12881  0.488184
12891  0.249518
12901  0.283091
12911  0.197004
12921  0.282955
12931  0.3244
12941  0.289692
12951  0.339111
12961  0.542954
12971  0.426362
12981  0.420616
12991  0.611967
13001  0.461163
13011  0.335495
13021  0.287607
13031  0.250506
13041  0.37184
13051  0.406215
13061  0.429253
13071  0.315121
13081  0.56306
13091  0.520816
13101  0.583967
13111  0.515924
13121  0.597645
13131  0.303719
13141  0.433676
13151  0.500124
13161  0.4339
13171  0.45733
13181  0.292038
13191  0.461104
13201  0.564464
13211  0.33708
13221  0.489552
13231  0.456643
13241  0.411353
13251  0.343849
13261  0.491363
13271  0.673889
13281  0.408067
13291  0.444496
13301  0.252822
13311  0.169213
13321  0.206516
13331  0.485135
13341  0.240958
13351  0.197214
13361  0.408284
13371  0.330271
13381  0.265951
13391  0.339652
13401  0.36391
13411  0.494619
13421  0.739202
13431  0.515103
13441  0.445294
13451  0.391737
13461  0.264555
13471  0.329781
13481  0.264548
13491  0.273213
13501  0.459567
13511  0.421365
13521  0.635219
13531  0.596798
13541  0.635135
13551  0.492698
13561  0.453532
13571  0.268565
13581  0.424398
13591  0.366078
13601  0.388152
13611  0.534814
13621  0.498582
13631  0.429228
13641  0.504966
13651  0.558263
13661  0.333505
13671  0.268012
13681  0.668697
13691  0.422621
13701  0.357652
13711  0.312482
13721  0.325591
13731  0.127516
13741  0.21669
13751  0.329469
13761  0.587293
13771  0.445836
13781  0.405378
13791  0.543458
13801  0.592341
13811  0.491811
13821  0.451967
13831  0.65101
13841  0.444841
13851  0.588919
13861  0.420394
13871  0.359342
13881  0.32175
13891  0.30983
13901  0.353002
13911  0.429699
13921  0.260612
13931  0.35313
13941  0.316555
13951  0.477882
13961  0.441267
13971  0.457723
13981  0.345081
13991  0.425452
14001  0.431639
14011  0.300388
14021  0.420937
14031  0.371
14041  0.494335
14051  0.531637
14061  0.418688
14071  0.368118
14081  0.541149
14091  0.531955
14101  0.499178
14111  0.62085
14121  0.356858
14131  0.552627
14141  0.405232
14151  0.306338
14161  0.282912
14171  0.342309
14181  0.268936
14191  0.334124
14201  0.329413
14211  0.466194
14221  0.48276
14231  0.138391
14241  0.17734
14251  0.336298
14261  0.314515
14271  0.511991
14281  0.507355
14291  0.1747
14301  0.161207
14311  0.338461
14321  0.285954
14331  0.36379
14341  0.226977
14351  0.446857
14361  0.501505
14371  0.235603
14381  0.301392
14391  0.197835
14401  0.304227
14411  0.488537
14421  0.643924
14431  0.379798
14441  0.496332
14451  0.456341
14461  0.437371
14471  0.456976
14481  0.538666
14491  0.420714
14501  0.540689
14511  0.294829
14521  0.35008
14531  0.350764
14541  0.454341
14551  0.236071
14561  0.318755
14571  0.531099
14581  0.424209
14591  0.358362
14601  0.264139
14611  0.426368
14621  0.238235
14631  0.318029
14641  0.440118
14651  0.455067
14661  0.384221
14671  0.395528
14681  0.25718
14691  0.247008
14701  0.175283
14711  0.241625
14721  0.286657
14731  0.343242
14741  0.36062
14751  0.618729
14761  0.285569
14771  0.614577
14781  0.390657
14791  0.536331
14801  0.762124
14811  0.427617
14821  0.510273
14831  0.487952
14841  0.83271
14851  0.501319
14861  0.238264
14871  0.339295
14881  0.243577
14891  0.276242
14901  0.345895
14911  0.193933
14921  0.30381
14931  0.254846
14941  0.256161
14951  0.258263
14961  0.355964
14971  0.528473
14981  0.397628
14991  0.403653
