%!PS-Adobe-3.0
%%BoundingBox: 38 24 574 768
%%Title: Enscript Output
%%For: Peng Yu
%%Creator: GNU enscript 1.6.4
%%CreationDate: Fri Aug 31 20:31:49 2012
%%Orientation: Portrait
%%Pages: (atend)
%%DocumentMedia: Letter 612 792 0 () ()
%%DocumentNeededResources: (atend)
%%EndComments
%%BeginProlog
%%BeginResource: procset Enscript-Prolog 1.6 4
%
% Procedures.
%

/_S {	% save current state
  /_s save def
} def
/_R {	% restore from saved state
  _s restore
} def

/S {	% showpage protecting gstate
  gsave
  showpage
  grestore
} bind def

/MF {	% fontname newfontname -> -	make a new encoded font
  /newfontname exch def
  /fontname exch def

  /fontdict fontname findfont def
  /newfont fontdict maxlength dict def

  fontdict {
    exch
    dup /FID eq {
      % skip FID pair
      pop pop
    } {
      % copy to the new font dictionary
      exch newfont 3 1 roll put
    } ifelse
  } forall

  newfont /FontName newfontname put

  % insert only valid encoding vectors
  encoding_vector length 256 eq {
    newfont /Encoding encoding_vector put
  } if

  newfontname newfont definefont pop
} def

/MF_PS { % fontname newfontname -> -	make a new font preserving its enc
  /newfontname exch def
  /fontname exch def

  /fontdict fontname findfont def
  /newfont fontdict maxlength dict def

  fontdict {
    exch
    dup /FID eq {
      % skip FID pair
      pop pop
    } {
      % copy to the new font dictionary
      exch newfont 3 1 roll put
    } ifelse
  } forall

  newfont /FontName newfontname put

  newfontname newfont definefont pop
} def

/SF { % fontname width height -> -	set a new font
  /height exch def
  /width exch def

  findfont
  [width 0 0 height 0 0] makefont setfont
} def

/SUF { % fontname width height -> -	set a new user font
  /height exch def
  /width exch def

  /F-gs-user-font MF
  /F-gs-user-font width height SF
} def

/SUF_PS { % fontname width height -> -	set a new user font preserving its enc
  /height exch def
  /width exch def

  /F-gs-user-font MF_PS
  /F-gs-user-font width height SF
} def

/M {moveto} bind def
/s {show} bind def

/Box {	% x y w h -> -			define box path
  /d_h exch def /d_w exch def /d_y exch def /d_x exch def
  d_x d_y  moveto
  d_w 0 rlineto
  0 d_h rlineto
  d_w neg 0 rlineto
  closepath
} def

/bgs {	% x y height blskip gray str -> -	show string with bg color
  /str exch def
  /gray exch def
  /blskip exch def
  /height exch def
  /y exch def
  /x exch def

  gsave
    x y blskip sub str stringwidth pop height Box
    gray setgray
    fill
  grestore
  x y M str s
} def

/bgcs { % x y height blskip red green blue str -> -  show string with bg color
  /str exch def
  /blue exch def
  /green exch def
  /red exch def
  /blskip exch def
  /height exch def
  /y exch def
  /x exch def

  gsave
    x y blskip sub str stringwidth pop height Box
    red green blue setrgbcolor
    fill
  grestore
  x y M str s
} def

% Highlight bars.
/highlight_bars {	% nlines lineheight output_y_margin gray -> -
  gsave
    setgray
    /ymarg exch def
    /lineheight exch def
    /nlines exch def

    % This 2 is just a magic number to sync highlight lines to text.
    0 d_header_y ymarg sub 2 sub translate

    /cw d_output_w cols div def
    /nrows d_output_h ymarg 2 mul sub lineheight div cvi def

    % for each column
    0 1 cols 1 sub {
      cw mul /xp exch def

      % for each rows
      0 1 nrows 1 sub {
        /rn exch def
        rn lineheight mul neg /yp exch def
        rn nlines idiv 2 mod 0 eq {
	  % Draw highlight bar.  4 is just a magic indentation.
	  xp 4 add yp cw 8 sub lineheight neg Box fill
	} if
      } for
    } for

  grestore
} def

% Line highlight bar.
/line_highlight {	% x y width height gray -> -
  gsave
    /gray exch def
    Box gray setgray fill
  grestore
} def

% Column separator lines.
/column_lines {
  gsave
    .1 setlinewidth
    0 d_footer_h translate
    /cw d_output_w cols div def
    1 1 cols 1 sub {
      cw mul 0 moveto
      0 d_output_h rlineto stroke
    } for
  grestore
} def

% Column borders.
/column_borders {
  gsave
    .1 setlinewidth
    0 d_footer_h moveto
    0 d_output_h rlineto
    d_output_w 0 rlineto
    0 d_output_h neg rlineto
    closepath stroke
  grestore
} def

% Do the actual underlay drawing
/draw_underlay {
  ul_style 0 eq {
    ul_str true charpath stroke
  } {
    ul_str show
  } ifelse
} def

% Underlay
/underlay {	% - -> -
  gsave
    0 d_page_h translate
    d_page_h neg d_page_w atan rotate

    ul_gray setgray
    ul_font setfont
    /dw d_page_h dup mul d_page_w dup mul add sqrt def
    ul_str stringwidth pop dw exch sub 2 div ul_h_ptsize -2 div moveto
    draw_underlay
  grestore
} def

/user_underlay {	% - -> -
  gsave
    ul_x ul_y translate
    ul_angle rotate
    ul_gray setgray
    ul_font setfont
    0 0 ul_h_ptsize 2 div sub moveto
    draw_underlay
  grestore
} def

% Page prefeed
/page_prefeed {		% bool -> -
  statusdict /prefeed known {
    statusdict exch /prefeed exch put
  } {
    pop
  } ifelse
} def

% Wrapped line markers
/wrapped_line_mark {	% x y charwith charheight type -> -
  /type exch def
  /h exch def
  /w exch def
  /y exch def
  /x exch def

  type 2 eq {
    % Black boxes (like TeX does)
    gsave
      0 setlinewidth
      x w 4 div add y M
      0 h rlineto w 2 div 0 rlineto 0 h neg rlineto
      closepath fill
    grestore
  } {
    type 3 eq {
      % Small arrows
      gsave
        .2 setlinewidth
        x w 2 div add y h 2 div add M
        w 4 div 0 rlineto
        x w 4 div add y lineto stroke

        x w 4 div add w 8 div add y h 4 div add M
        x w 4 div add y lineto
	w 4 div h 8 div rlineto stroke
      grestore
    } {
      % do nothing
    } ifelse
  } ifelse
} def

% EPSF import.

/BeginEPSF {
  /b4_Inc_state save def    		% Save state for cleanup
  /dict_count countdictstack def	% Count objects on dict stack
  /op_count count 1 sub def		% Count objects on operand stack
  userdict begin
  /showpage { } def
  0 setgray 0 setlinecap
  1 setlinewidth 0 setlinejoin
  10 setmiterlimit [ ] 0 setdash newpath
  /languagelevel where {
    pop languagelevel
    1 ne {
      false setstrokeadjust false setoverprint
    } if
  } if
} bind def

/EndEPSF {
  count op_count sub { pos } repeat	% Clean up stacks
  countdictstack dict_count sub { end } repeat
  b4_Inc_state restore
} bind def

% Check PostScript language level.
/languagelevel where {
  pop /gs_languagelevel languagelevel def
} {
  /gs_languagelevel 1 def
} ifelse
%%EndResource
%%BeginResource: procset Enscript-Encoding-88591 1.6 4
/encoding_vector [
/.notdef      	/.notdef      	/.notdef      	/.notdef      	
/.notdef      	/.notdef      	/.notdef      	/.notdef      	
/.notdef      	/.notdef      	/.notdef      	/.notdef      	
/.notdef      	/.notdef      	/.notdef      	/.notdef      	
/.notdef      	/.notdef      	/.notdef      	/.notdef      	
/.notdef      	/.notdef      	/.notdef      	/.notdef      	
/.notdef      	/.notdef      	/.notdef      	/.notdef      	
/.notdef      	/.notdef      	/.notdef      	/.notdef      	
/space        	/exclam       	/quotedbl     	/numbersign   	
/dollar       	/percent      	/ampersand    	/quoteright   	
/parenleft    	/parenright   	/asterisk     	/plus         	
/comma        	/hyphen       	/period       	/slash        	
/zero         	/one          	/two          	/three        	
/four         	/five         	/six          	/seven        	
/eight        	/nine         	/colon        	/semicolon    	
/less         	/equal        	/greater      	/question     	
/at           	/A            	/B            	/C            	
/D            	/E            	/F            	/G            	
/H            	/I            	/J            	/K            	
/L            	/M            	/N            	/O            	
/P            	/Q            	/R            	/S            	
/T            	/U            	/V            	/W            	
/X            	/Y            	/Z            	/bracketleft  	
/backslash    	/bracketright 	/asciicircum  	/underscore   	
/quoteleft    	/a            	/b            	/c            	
/d            	/e            	/f            	/g            	
/h            	/i            	/j            	/k            	
/l            	/m            	/n            	/o            	
/p            	/q            	/r            	/s            	
/t            	/u            	/v            	/w            	
/x            	/y            	/z            	/braceleft    	
/bar          	/braceright   	/tilde        	/.notdef      	
/.notdef      	/.notdef      	/.notdef      	/.notdef      	
/.notdef      	/.notdef      	/.notdef      	/.notdef      	
/.notdef      	/.notdef      	/.notdef      	/.notdef      	
/.notdef      	/.notdef      	/.notdef      	/.notdef      	
/.notdef      	/.notdef      	/.notdef      	/.notdef      	
/.notdef      	/.notdef      	/.notdef      	/.notdef      	
/.notdef      	/.notdef      	/.notdef      	/.notdef      	
/.notdef      	/.notdef      	/.notdef      	/.notdef      	
/space        	/exclamdown   	/cent         	/sterling     	
/currency     	/yen          	/brokenbar    	/section      	
/dieresis     	/copyright    	/ordfeminine  	/guillemotleft	
/logicalnot   	/hyphen       	/registered   	/macron       	
/degree       	/plusminus    	/twosuperior  	/threesuperior	
/acute        	/mu           	/paragraph    	/bullet       	
/cedilla      	/onesuperior  	/ordmasculine 	/guillemotright	
/onequarter   	/onehalf      	/threequarters	/questiondown 	
/Agrave       	/Aacute       	/Acircumflex  	/Atilde       	
/Adieresis    	/Aring        	/AE           	/Ccedilla     	
/Egrave       	/Eacute       	/Ecircumflex  	/Edieresis    	
/Igrave       	/Iacute       	/Icircumflex  	/Idieresis    	
/Eth          	/Ntilde       	/Ograve       	/Oacute       	
/Ocircumflex  	/Otilde       	/Odieresis    	/multiply     	
/Oslash       	/Ugrave       	/Uacute       	/Ucircumflex  	
/Udieresis    	/Yacute       	/Thorn        	/germandbls   	
/agrave       	/aacute       	/acircumflex  	/atilde       	
/adieresis    	/aring        	/ae           	/ccedilla     	
/egrave       	/eacute       	/ecircumflex  	/edieresis    	
/igrave       	/iacute       	/icircumflex  	/idieresis    	
/eth          	/ntilde       	/ograve       	/oacute       	
/ocircumflex  	/otilde       	/odieresis    	/divide       	
/oslash       	/ugrave       	/uacute       	/ucircumflex  	
/udieresis    	/yacute       	/thorn        	/ydieresis    	
] def
%%EndResource
%%EndProlog
%%BeginSetup
%%IncludeResource: font Courier-Bold
%%IncludeResource: font Courier
/HFpt_w 10 def
/HFpt_h 10 def
/Courier-Bold /HF-gs-font MF
/HF /HF-gs-font findfont [HFpt_w 0 0 HFpt_h 0 0] makefont def
/Courier /F-gs-font MF
/F-gs-font 10 10 SF
/#copies 1 def
% Pagedevice definitions:
gs_languagelevel 1 gt {
  <<
    /PageSize [612 792] 
  >> setpagedevice
} if
%%BeginResource: procset Enscript-Header-simple 1.6 4

/do_header {	% print default simple header
  gsave
    d_header_x d_header_y HFpt_h 3 div add translate

    HF setfont
    user_header_p {
      5 0 moveto user_header_left_str show

      d_header_w user_header_center_str stringwidth pop sub 2 div
      0 moveto user_header_center_str show

      d_header_w user_header_right_str stringwidth pop sub 5 sub
      0 moveto user_header_right_str show
    } {
      5 0 moveto fname show
      45 0 rmoveto fmodstr show
      45 0 rmoveto pagenumstr show
    } ifelse

  grestore
} def
%%EndResource
/d_page_w 536 def
/d_page_h 744 def
/d_header_x 0 def
/d_header_y 729 def
/d_header_w 536 def
/d_header_h 15 def
/d_footer_x 0 def
/d_footer_y 0 def
/d_footer_w 536 def
/d_footer_h 0 def
/d_output_w 536 def
/d_output_h 729 def
/cols 1 def
%%EndSetup
%%Page: (1) 1
%%BeginPageSetup
_S
38 24 translate
/pagenum 1 def
/fname () def
/fdir () def
/ftail () def
% User defined strings:
/fmodstr (Fri Aug 31 20:31:49 2012) def
/pagenumstr (1) def
/user_header_p false def
/user_footer_p false def
%%EndPageSetup
do_header
5 705 M
(glm> ## Dobson \(1990\) Page 93: Randomized Controlled Trial :) s
5 694 M
(glm> counts <- c\(18,17,15,20,10,20,25,13,12\)) s
5 672 M
(glm> outcome <- gl\(3,1,9\)) s
5 650 M
(glm> treatment <- gl\(3,3\)) s
5 628 M
(glm> print\(d.AD <- data.frame\(treatment, outcome, counts\)\)) s
5 617 M
(  treatment outcome counts) s
5 606 M
(1         1       1     18) s
5 595 M
(2         1       2     17) s
5 584 M
(3         1       3     15) s
5 573 M
(4         2       1     20) s
5 562 M
(5         2       2     10) s
5 551 M
(6         2       3     20) s
5 540 M
(7         3       1     25) s
5 529 M
(8         3       2     13) s
5 518 M
(9         3       3     12) s
5 496 M
(glm> glm.D93 <- glm\(counts ~ outcome + treatment, family=poisson\(\)\)) s
5 474 M
(glm> anova\(glm.D93\)) s
5 463 M
(Analysis of Deviance Table) s
5 441 M
(Model: poisson, link: log) s
5 419 M
(Response: counts) s
5 397 M
(Terms added sequentially \(first to last\)) s
5 364 M
(          Df Deviance Resid. Df Resid. Dev) s
5 353 M
(NULL                          8    10.5814) s
5 342 M
(outcome    2   5.4523         6     5.1291) s
5 331 M
(treatment  2   0.0000         4     5.1291) s
5 309 M
(glm> ## No test: ) s
5 298 M
(glm> summary\(glm.D93\)) s
5 276 M
(Call:) s
5 265 M
(glm\(formula = counts ~ outcome + treatment, family = poisson\(\)\)) s
5 243 M
(Deviance Residuals: ) s
5 232 M
(       1         2         3         4         5         6         7         8  ) s
5 221 M
(-0.67125   0.96272  -0.16965  -0.21999  -0.95552   1.04939   0.84715  -0.09167  ) s
5 210 M
(       9  ) s
5 199 M
(-0.96656  ) s
5 177 M
(Coefficients:) s
5 166 M
(              Estimate Std. Error z value Pr\(>|z|\)    ) s
5 155 M
(\(Intercept\)  3.045e+00  1.709e-01  17.815   <2e-16 ***) s
5 144 M
(outcome2    -4.543e-01  2.022e-01  -2.247   0.0246 *  ) s
5 133 M
(outcome3    -2.930e-01  1.927e-01  -1.520   0.1285    ) s
5 122 M
(treatment2   1.338e-15  2.000e-01   0.000   1.0000    ) s
5 111 M
(treatment3   1.421e-15  2.000e-01   0.000   1.0000    ) s
5 100 M
(---) s
5 89 M
(Signif. codes:  0 \342\\200\\230***\342\\200\\231 0.001 \342\\200\\230**\342\\200\\231 0.01 \342\\200\\230*\342\\200) s
5 78 M
(\\231 0.05 \342\\200\\230.\342\\200\\231 0.1 \342\\200\\230 \342\\200\\231 1 ) s
5 56 M
(\(Dispersion parameter for poisson family taken to be 1\)) s
5 34 M
(    Null deviance: 10.5814  on 8  degrees of freedom) s
5 23 M
(Residual deviance:  5.1291  on 4  degrees of freedom) s
5 12 M
(AIC: 56.761) s
_R
S
%%Page: (2) 2
%%BeginPageSetup
_S
38 24 translate
/pagenum 2 def
/fname () def
/fdir () def
/ftail () def
% User defined strings:
/fmodstr (Fri Aug 31 20:31:49 2012) def
/pagenumstr (2) def
/user_header_p false def
/user_footer_p false def
%%EndPageSetup
do_header
5 705 M
(Number of Fisher Scoring iterations: 4) s
5 672 M
(glm> ## End\(No test\)) s
5 661 M
(glm> ) s
5 650 M
(glm> ## an example with offsets from Venables & Ripley \(2002, p.189\)) s
5 639 M
(glm> utils::data\(anorexia, package="MASS"\)) s
5 617 M
(glm> anorex.1 <- glm\(Postwt ~ Prewt + Treat + offset\(Prewt\),) s
5 606 M
(glm+                 family = gaussian, data = anorexia\)) s
5 584 M
(glm> summary\(anorex.1\)) s
5 562 M
(Call:) s
5 551 M
(glm\(formula = Postwt ~ Prewt + Treat + offset\(Prewt\), family = gaussian, ) s
5 540 M
(    data = anorexia\)) s
5 518 M
(Deviance Residuals: ) s
5 507 M
(     Min        1Q    Median        3Q       Max  ) s
5 496 M
(-14.1083   -4.2773   -0.5484    5.4838   15.2922  ) s
5 474 M
(Coefficients:) s
5 463 M
(            Estimate Std. Error t value Pr\(>|t|\)    ) s
5 452 M
(\(Intercept\)  49.7711    13.3910   3.717 0.000410 ***) s
5 441 M
(Prewt        -0.5655     0.1612  -3.509 0.000803 ***) s
5 430 M
(TreatCont    -4.0971     1.8935  -2.164 0.033999 *  ) s
5 419 M
(TreatFT       4.5631     2.1333   2.139 0.036035 *  ) s
5 408 M
(---) s
5 397 M
(Signif. codes:  0 \342\\200\\230***\342\\200\\231 0.001 \342\\200\\230**\342\\200\\231 0.01 \342\\200\\230*\342\\200) s
5 386 M
(\\231 0.05 \342\\200\\230.\342\\200\\231 0.1 \342\\200\\230 \342\\200\\231 1 ) s
5 364 M
(\(Dispersion parameter for gaussian family taken to be 48.69504\)) s
5 342 M
(    Null deviance: 4525.4  on 71  degrees of freedom) s
5 331 M
(Residual deviance: 3311.3  on 68  degrees of freedom) s
5 320 M
(AIC: 489.97) s
5 298 M
(Number of Fisher Scoring iterations: 2) s
5 265 M
(glm> # A Gamma example, from McCullagh & Nelder \(1989, pp. 300-2\)) s
5 254 M
(glm> clotting <- data.frame\() s
5 243 M
(glm+     u = c\(5,10,15,20,30,40,60,80,100\),) s
5 232 M
(glm+     lot1 = c\(118,58,42,35,27,25,21,19,18\),) s
5 221 M
(glm+     lot2 = c\(69,35,26,21,18,16,13,12,12\)\)) s
5 199 M
(glm> summary\(glm\(lot1 ~ log\(u\), data=clotting, family=Gamma\)\)) s
5 177 M
(Call:) s
5 166 M
(glm\(formula = lot1 ~ log\(u\), family = Gamma, data = clotting\)) s
5 144 M
(Deviance Residuals: ) s
5 133 M
(     Min        1Q    Median        3Q       Max  ) s
5 122 M
(-0.04008  -0.03756  -0.02637   0.02905   0.08641  ) s
5 100 M
(Coefficients:) s
5 89 M
(              Estimate Std. Error t value Pr\(>|t|\)    ) s
5 78 M
(\(Intercept\) -0.0165544  0.0009275  -17.85 4.28e-07 ***) s
5 67 M
(log\(u\)       0.0153431  0.0004150   36.98 2.75e-09 ***) s
5 56 M
(---) s
5 45 M
(Signif. codes:  0 \342\\200\\230***\342\\200\\231 0.001 \342\\200\\230**\342\\200\\231 0.01 \342\\200\\230*\342\\200) s
5 34 M
(\\231 0.05 \342\\200\\230.\342\\200\\231 0.1 \342\\200\\230 \342\\200\\231 1 ) s
5 12 M
(\(Dispersion parameter for Gamma family taken to be 0.002446059\)) s
_R
S
%%Page: (3) 3
%%BeginPageSetup
_S
38 24 translate
/pagenum 3 def
/fname () def
/fdir () def
/ftail () def
% User defined strings:
/fmodstr (Fri Aug 31 20:31:49 2012) def
/pagenumstr (3) def
/user_header_p false def
/user_footer_p false def
%%EndPageSetup
do_header
5 705 M
(    Null deviance: 3.51283  on 8  degrees of freedom) s
5 694 M
(Residual deviance: 0.01673  on 7  degrees of freedom) s
5 683 M
(AIC: 37.99) s
5 661 M
(Number of Fisher Scoring iterations: 3) s
5 628 M
(glm> summary\(glm\(lot2 ~ log\(u\), data=clotting, family=Gamma\)\)) s
5 606 M
(Call:) s
5 595 M
(glm\(formula = lot2 ~ log\(u\), family = Gamma, data = clotting\)) s
5 573 M
(Deviance Residuals: ) s
5 562 M
(     Min        1Q    Median        3Q       Max  ) s
5 551 M
(-0.05574  -0.02925   0.01030   0.01714   0.06371  ) s
5 529 M
(Coefficients:) s
5 518 M
(              Estimate Std. Error t value Pr\(>|t|\)    ) s
5 507 M
(\(Intercept\) -0.0239085  0.0013265  -18.02 4.00e-07 ***) s
5 496 M
(log\(u\)       0.0235992  0.0005768   40.91 1.36e-09 ***) s
5 485 M
(---) s
5 474 M
(Signif. codes:  0 \342\\200\\230***\342\\200\\231 0.001 \342\\200\\230**\342\\200\\231 0.01 \342\\200\\230*\342\\200) s
5 463 M
(\\231 0.05 \342\\200\\230.\342\\200\\231 0.1 \342\\200\\230 \342\\200\\231 1 ) s
5 441 M
(\(Dispersion parameter for Gamma family taken to be 0.001813354\)) s
5 419 M
(    Null deviance: 3.118557  on 8  degrees of freedom) s
5 408 M
(Residual deviance: 0.012672  on 7  degrees of freedom) s
5 397 M
(AIC: 27.032) s
5 375 M
(Number of Fisher Scoring iterations: 3) s
5 342 M
(glm> ## Not run: ) s
5 331 M
(glm> ##D ## for an example of the use of a terms object as a formula) s
5 320 M
(glm> ##D demo\(glm.vr\)) s
5 309 M
(glm> ## End\(Not run\)) s
5 298 M
(glm> ) s
5 287 M
(glm> ) s
_R
S
%%Trailer
%%Pages: 3
%%DocumentNeededResources: font Courier-Bold Courier 
%%EOF
